# Fdb version 3
["pdflatex"] 1438383803 "chap1.tex" "chap1.pdf" "chap1" 1438383803
  "/etc/texmf/web2c/texmf.cnf" 1438101248 1101 af7716885e081ab43982cab7b4672c1a ""
  "/usr/share/texlive/texmf-dist/fonts/map/fontname/texfonts.map" 1272929888 3287 e6b82fe08f5336d4d5ebc73fb1152e87 ""
  "/usr/share/texlive/texmf-dist/fonts/tfm/public/cm/cmbx10.tfm" 1136768653 1328 c834bbb027764024c09d3d2bf908b5f0 ""
  "/usr/share/texlive/texmf-dist/fonts/tfm/public/cm/cmti10.tfm" 1136768653 1480 aa8e34af0eb6a2941b776984cf1dfdc4 ""
  "/usr/share/texlive/texmf-dist/web2c/texmf.cnf" 1392645748 31083 1dfd8bf685ce0009c40532fedf8a7c53 ""
  "/usr/share/texmf/web2c/texmf.cnf" 1392645748 31083 1dfd8bf685ce0009c40532fedf8a7c53 ""
  "/var/lib/texmf/fonts/map/pdftex/updmap/pdftex.map" 1438101447 1346346 7f2b8b715a9ddb095afe3697a6ba02b5 ""
  "/var/lib/texmf/web2c/pdftex/pdflatex.fmt" 1438101396 3822874 958222ca02906c047220b219a6b5701a ""
  "chap1.aux" 1438194155 1867 7083210658910952652b6cd775bcbac7 ""
  "chap1.tex" 1438383803 13085 35c4f1dce24ee8fe9bdc22c3288baf29 ""
  (generated)
  "chap1.pdf"
  "chap1.log"
