# Fdb version 3
["pdflatex"] 1438383504 "main.tex" "main.pdf" "main" 1438383504
  "/etc/texmf/web2c/texmf.cnf" 1438101248 1101 af7716885e081ab43982cab7b4672c1a ""
  "/usr/share/texlive/texmf-dist/fonts/map/fontname/texfonts.map" 1272929888 3287 e6b82fe08f5336d4d5ebc73fb1152e87 ""
  "/usr/share/texlive/texmf-dist/fonts/tfm/jknappen/ec/ecrm1200.tfm" 1136768653 3584 f80ddd985bd00e29e9a6047ebd9d4781 ""
  "/usr/share/texlive/texmf-dist/fonts/tfm/public/cm/cmr12.tfm" 1136768653 1288 655e228510b4c2a1abe905c368440826 ""
  "/usr/share/texlive/texmf-dist/tex/latex/base/fontenc.sty" 1254151887 4435 b97063eb2f20be499e7725926af85c55 ""
  "/usr/share/texlive/texmf-dist/tex/latex/base/report.cls" 1254151887 23630 e94bcdae2fe64080c9cd6c5639d834da ""
  "/usr/share/texlive/texmf-dist/tex/latex/base/size12.clo" 1254151887 9053 a28d9b3c915d12545f3d5e7c4986be20 ""
  "/usr/share/texlive/texmf-dist/tex/latex/base/t1enc.def" 1254151887 9172 67c33288b50eb57eab968f345e8befb0 ""
  "/usr/share/texlive/texmf-dist/tex/latex/cmap/cmap.sty" 1215522782 2883 427a7f7cb58418a0394dbd85c80668f6 ""
  "/usr/share/texlive/texmf-dist/tex/latex/cmap/t1.cmap" 1215522782 1938 beaa4a8467aa0074076e0e19f2992e29 ""
  "/usr/share/texlive/texmf-dist/tex/latex/setspace/setspace.sty" 1324344192 22913 a27d7908fc6f0385466454a966a316eb ""
  "/usr/share/texlive/texmf-dist/web2c/texmf.cnf" 1392645748 31083 1dfd8bf685ce0009c40532fedf8a7c53 ""
  "/usr/share/texmf/web2c/texmf.cnf" 1392645748 31083 1dfd8bf685ce0009c40532fedf8a7c53 ""
  "/var/lib/texmf/web2c/pdftex/pdflatex.fmt" 1438101396 3822874 958222ca02906c047220b219a6b5701a ""
  "lgrind.sty" 940495108 7434 ea74beead1aa2b711ec2669ba60562c3 ""
  "main.aux" 1438194155 143 d5426d9af291e3a4dc52785209d53e61 ""
  "main.tex" 1438194888 2078 bc58f0826ab825157320ec695bbbff14 ""
  "mitthesis.cls" 1329299324 19739 88c5ea0f79a8c9e7d047b6473948901f ""
  (generated)
  "main.pdf"
  "main.log"
