\relax 
\providecommand\hyper@newdestlabel[2]{}
\@writefile{toc}{\contentsline {chapter}{\numberline {7}Conclusions and future work}{143}{chapter.419}}
\@writefile{lof}{\addvspace {10\p@ }}
\@writefile{lot}{\addvspace {10\p@ }}
\@writefile{toc}{\contentsline {section}{\numberline {7.1}Conclusions}{143}{section.420}}
\newlabel{S:conclusion}{{7.1}{143}{Conclusions}{section.420}{}}
\@writefile{toc}{\contentsline {section}{\numberline {7.2}Future work}{145}{section.421}}
\newlabel{S:fut_work}{{7.2}{145}{Future work}{section.421}{}}
\citation{4912964}
\@setckpt{conclusion}{
\setcounter{page}{147}
\setcounter{equation}{0}
\setcounter{enumi}{8}
\setcounter{enumii}{0}
\setcounter{enumiii}{0}
\setcounter{enumiv}{0}
\setcounter{footnote}{0}
\setcounter{mpfootnote}{0}
\setcounter{part}{0}
\setcounter{chapter}{7}
\setcounter{section}{2}
\setcounter{subsection}{0}
\setcounter{subsubsection}{0}
\setcounter{paragraph}{0}
\setcounter{subparagraph}{0}
\setcounter{figure}{0}
\setcounter{table}{0}
\setcounter{parentequation}{0}
\setcounter{example}{0}
\setcounter{theorem}{0}
\setcounter{ContinuedFloat}{0}
\setcounter{subfigure}{0}
\setcounter{lofdepth}{1}
\setcounter{subtable}{0}
\setcounter{lotdepth}{1}
\setcounter{r@tfl@t}{2}
\setcounter{lstnumber}{1}
\setcounter{Item}{57}
\setcounter{Hfootnote}{17}
\setcounter{bookmark@seq@number}{97}
\setcounter{dummy}{2}
\setcounter{LT@tables}{0}
\setcounter{LT@chunks}{0}
\setcounter{lips@count}{0}
\setcounter{blindtext}{1}
\setcounter{Blindtext}{5}
\setcounter{blind@countparstart}{0}
\setcounter{blindlist}{0}
\setcounter{blindlistlevel}{0}
\setcounter{blindlist@level}{0}
\setcounter{blind@listcount}{0}
\setcounter{blind@levelcount}{0}
\setcounter{blind@randomcount}{0}
\setcounter{blind@randommax}{0}
\setcounter{blind@pangramcount}{0}
\setcounter{blind@pangrammax}{0}
\setcounter{@pps}{0}
\setcounter{@ppsavesec}{0}
\setcounter{@ppsaveapp}{0}
\setcounter{float@type}{16}
\setcounter{algorithm}{4}
\setcounter{ALC@unique}{92}
\setcounter{ALC@line}{46}
\setcounter{ALC@rem}{0}
\setcounter{ALC@depth}{0}
\setcounter{lstlisting}{0}
\setcounter{section@level}{1}
}
