\relax 
\providecommand\hyper@newdestlabel[2]{}
\citation{openmp}
\citation{mpi}
\citation{reinders2007intel}
\citation{butenhof1997programming}
\@writefile{toc}{\contentsline {chapter}{\numberline {3}Development framework}{21}{chapter.38}}
\@writefile{lof}{\addvspace {10\p@ }}
\@writefile{lot}{\addvspace {10\p@ }}
\@writefile{toc}{\contentsline {section}{\numberline {3.1}Software alternatives for developing parallel applications}{21}{section.39}}
\newlabel{S:sw_alt}{{3.1}{21}{Software alternatives for developing parallel applications}{section.39}{}}
\@writefile{toc}{\contentsline {subsection}{\numberline {3.1.1}OpenMP and MPI}{21}{subsection.40}}
\@writefile{lof}{\contentsline {figure}{\numberline {3.1}{\ignorespaces Distributed memory architecture.\relax }}{22}{figure.caption.41}}
\newlabel{F:dist_mem}{{3.1}{22}{Distributed memory architecture.\relax }{figure.caption.41}{}}
\citation{4912964}
\citation{Jost_comparingthe}
\@writefile{lof}{\contentsline {figure}{\numberline {3.2}{\ignorespaces Shared memory architecture.\relax }}{23}{figure.caption.42}}
\newlabel{F:sh_mem}{{3.2}{23}{Shared memory architecture.\relax }{figure.caption.42}{}}
\citation{mpi_2}
\citation{mpi_versions}
\citation{openmpi}
\citation{openmpi_license}
\citation{mpiorg}
\citation{argonne}
\citation{mpipro}
\citation{sapcmpi}
\@writefile{toc}{\contentsline {subsection}{\numberline {3.1.2}Different MPI versions}{24}{subsection.43}}
\newlabel{subsec:different_mpi_Versions}{{3.1.2}{24}{Different MPI versions}{subsection.43}{}}
\citation{mvapich}
\citation{intelmpi}
\citation{ibmmpi}
\citation{Balaji:2010:PSP:1894122.1894127}
\citation{energy_2}
\citation{energy_1}
\citation{energy_2}
\citation{5453824}
\citation{ref:powerpack}
\citation{ref:cabrera}
\citation{igprof}
\citation{khanenergy}
\@writefile{toc}{\contentsline {section}{\numberline {3.2}Energy measurement alternatives}{26}{section.44}}
\newlabel{S:energy_measurement_techniques}{{3.2}{26}{Energy measurement alternatives}{section.44}{}}
\@writefile{toc}{\contentsline {subsection}{\numberline {3.2.1}External probes}{26}{subsection.45}}
\@writefile{toc}{\contentsline {subsection}{\numberline {3.2.2}Models and tools}{26}{subsection.46}}
\citation{Jette02slurm:simple}
\citation{slurm_energy}
\citation{ref:rapl_manual}
\citation{ref:nvml}
\citation{ref:cabrera}
\@writefile{toc}{\contentsline {subsection}{\numberline {3.2.3}Hardware counters}{27}{subsection.47}}
\newlabel{subsec:hw_counters}{{3.2.3}{27}{Hardware counters}{subsection.47}{}}
\citation{weaver2012measuring}
\citation{ref:papi_rapl}
\citation{hydra}
\@writefile{toc}{\contentsline {section}{\numberline {3.3}Design alternatives}{28}{section.48}}
\newlabel{S:research_dir}{{3.3}{28}{Design alternatives}{section.48}{}}
\@writefile{toc}{\contentsline {subsection}{\numberline {3.3.1}Processor locality based on cache usage}{28}{subsection.49}}
\citation{hyperth}
\newlabel{my-label}{{\caption@xref {my-label}{ on input line 134}}{29}{Processor locality based on cache usage}{table.caption.50}{}}
\@writefile{lot}{\contentsline {table}{\numberline {3.1}{\ignorespaces Process mapping for the preliminary evaluation of the processor locality contribution to the overall execution time.\relax }}{29}{table.caption.50}}
\newlabel{T:locality}{{3.1}{29}{Process mapping for the preliminary evaluation of the processor locality contribution to the overall execution time.\relax }{table.caption.50}{}}
\citation{flexmpi}
\citation{flexmpi}
\citation{flexmpi}
\citation{flexmpi}
\@writefile{lof}{\contentsline {figure}{\numberline {3.3}{\ignorespaces Jacobi benchmark behaviour for various process mappings. \relax }}{30}{figure.caption.51}}
\newlabel{F:opt1}{{3.3}{30}{Jacobi benchmark behaviour for various process mappings. \relax }{figure.caption.51}{}}
\@writefile{lof}{\contentsline {figure}{\numberline {3.4}{\ignorespaces Jacobi benchmark cache miss rate for various process mappings. \relax }}{30}{figure.caption.52}}
\newlabel{F:opt2}{{3.4}{30}{Jacobi benchmark cache miss rate for various process mappings. \relax }{figure.caption.52}{}}
\@writefile{toc}{\contentsline {subsection}{\numberline {3.3.2}Improvement of the optimization algorithm}{31}{subsection.53}}
\@writefile{lof}{\contentsline {figure}{\numberline {3.5}{\ignorespaces Performance overhead for legacy MPI with static scheduling and Flex-MPI with static static scheduling and dynamic reconfiguration~\cite  {flexmpi}.\relax }}{31}{figure.caption.55}}
\newlabel{F:flexmpi_overhead}{{3.5}{31}{Performance overhead for legacy MPI with static scheduling and Flex-MPI with static static scheduling and dynamic reconfiguration~\cite {flexmpi}.\relax }{figure.caption.55}{}}
\citation{linear_op}
\@writefile{lot}{\contentsline {table}{\numberline {3.2}{\ignorespaces Results for different solvers applied to benchmark problem instances.\relax }}{32}{table.caption.56}}
\newlabel{F:solvers}{{3.2}{32}{Results for different solvers applied to benchmark problem instances.\relax }{table.caption.56}{}}
\@writefile{toc}{\contentsline {subsection}{\numberline {3.3.3}Energy-aware functionality}{32}{subsection.57}}
\@writefile{toc}{\contentsline {section}{\numberline {3.4}Development framework}{33}{section.58}}
\@writefile{toc}{\contentsline {subsection}{\numberline {3.4.1}Operating System}{33}{subsection.59}}
\newlabel{sec:os}{{3.4.1}{33}{Operating System}{subsection.59}{}}
\@writefile{toc}{\contentsline {subsection}{\numberline {3.4.2}Programming languages}{34}{subsection.61}}
\citation{mpinternals}
\citation{communicator}
\citation{mpi_2}
\@writefile{toc}{\contentsline {subsection}{\numberline {3.4.3}External libraries}{35}{subsection.62}}
\@writefile{toc}{\contentsline {subsubsection}{\numberline {3.4.3.1}MPICH}{35}{subsubsection.63}}
\citation{papi}
\citation{ref:papi_user_guide}
\@writefile{toc}{\contentsline {subsubsection}{\numberline {3.4.3.2}PAPI}{36}{subsubsection.64}}
\newlabel{subsubsec:papi}{{3.4.3.2}{36}{PAPI}{subsubsection.64}{}}
\citation{ref:papi_mpi}
\@writefile{lof}{\contentsline {figure}{\numberline {3.6}{\ignorespaces PAPI structure.\relax }}{37}{figure.caption.65}}
\citation{ref:msr_man}
\citation{ref:papi_rapl}
\citation{ref:rapl_manual}
\citation{ref:rapl_manual}
\citation{ref:glpk}
\@writefile{lof}{\contentsline {figure}{\numberline {3.7}{\ignorespaces MSR\_PKG\_ENERGY\_STATUS register.\relax }}{39}{figure.caption.66}}
\newlabel{F:rapl_reg}{{3.7}{39}{MSR\_PKG\_ENERGY\_STATUS register.\relax }{figure.caption.66}{}}
\@writefile{toc}{\contentsline {subsubsection}{\numberline {3.4.3.3}GLPK}{39}{subsubsection.67}}
\citation{sublimetext}
\@writefile{lof}{\contentsline {figure}{\numberline {3.8}{\ignorespaces Generic linear-programming problem.\relax }}{40}{figure.caption.68}}
\newlabel{F:lpg}{{3.8}{40}{Generic linear-programming problem.\relax }{figure.caption.68}{}}
\@writefile{toc}{\contentsline {subsection}{\numberline {3.4.4}Development software}{40}{subsection.69}}
\newlabel{ss:sw}{{3.4.4}{40}{Development software}{subsection.69}{}}
\citation{Jette02slurm:simple}
\citation{slurm}
\citation{yed}
\citation{egypt}
\citation{gprof}
\citation{ref:sockperf}
\citation{ref:graphviz}
\citation{ref:hpl}
\@writefile{toc}{\contentsline {subsection}{\numberline {3.4.5}Hardware Platform}{42}{subsection.71}}
\newlabel{subsec:hw_arch}{{3.4.5}{42}{Hardware Platform}{subsection.71}{}}
\@writefile{lof}{\contentsline {figure}{\numberline {3.9}{\ignorespaces ARCOS cluster logical structure.\relax }}{43}{figure.caption.72}}
\newlabel{F:arcos}{{3.9}{43}{ARCOS cluster logical structure.\relax }{figure.caption.72}{}}
\@setckpt{development_framework}{
\setcounter{page}{44}
\setcounter{equation}{0}
\setcounter{enumi}{0}
\setcounter{enumii}{0}
\setcounter{enumiii}{0}
\setcounter{enumiv}{0}
\setcounter{footnote}{3}
\setcounter{mpfootnote}{0}
\setcounter{part}{0}
\setcounter{chapter}{3}
\setcounter{section}{4}
\setcounter{subsection}{5}
\setcounter{subsubsection}{0}
\setcounter{paragraph}{0}
\setcounter{subparagraph}{0}
\setcounter{figure}{9}
\setcounter{table}{2}
\setcounter{parentequation}{0}
\setcounter{example}{0}
\setcounter{theorem}{0}
\setcounter{ContinuedFloat}{0}
\setcounter{subfigure}{0}
\setcounter{lofdepth}{1}
\setcounter{subtable}{0}
\setcounter{lotdepth}{1}
\setcounter{r@tfl@t}{0}
\setcounter{lstnumber}{1}
\setcounter{Item}{0}
\setcounter{Hfootnote}{11}
\setcounter{bookmark@seq@number}{46}
\setcounter{dummy}{2}
\setcounter{LT@tables}{0}
\setcounter{LT@chunks}{0}
\setcounter{lips@count}{0}
\setcounter{blindtext}{1}
\setcounter{Blindtext}{5}
\setcounter{blind@countparstart}{0}
\setcounter{blindlist}{0}
\setcounter{blindlistlevel}{0}
\setcounter{blindlist@level}{0}
\setcounter{blind@listcount}{0}
\setcounter{blind@levelcount}{0}
\setcounter{blind@randomcount}{0}
\setcounter{blind@randommax}{0}
\setcounter{blind@pangramcount}{0}
\setcounter{blind@pangrammax}{0}
\setcounter{@pps}{0}
\setcounter{@ppsavesec}{0}
\setcounter{@ppsaveapp}{0}
\setcounter{float@type}{16}
\setcounter{algorithm}{0}
\setcounter{ALC@unique}{0}
\setcounter{ALC@line}{0}
\setcounter{ALC@rem}{0}
\setcounter{ALC@depth}{0}
\setcounter{lstlisting}{0}
\setcounter{section@level}{2}
}
