\relax 
\providecommand\hyper@newdestlabel[2]{}
\@writefile{toc}{\contentsline {chapter}{\numberline {6}Evaluation}{119}{chapter.366}}
\@writefile{lof}{\addvspace {10\p@ }}
\@writefile{lot}{\addvspace {10\p@ }}
\@writefile{toc}{\contentsline {section}{\numberline {6.1}Validation}{119}{section.367}}
\newlabel{S:validation_res}{{6.1}{119}{Validation}{section.367}{}}
\@writefile{lot}{\contentsline {table}{\numberline {6.1}{\ignorespaces Generic validation test results.\relax }}{120}{table.caption.368}}
\newlabel{tbl:vt0}{{6.1}{120}{Generic validation test results.\relax }{table.caption.368}{}}
\@writefile{toc}{\contentsline {subsection}{\numberline {6.1.1}Validation results}{120}{subsection.369}}
\@writefile{lot}{\contentsline {table}{\numberline {6.2}{\ignorespaces Results validation test VT-01.\relax }}{120}{table.caption.370}}
\newlabel{tbl:vt1}{{6.2}{120}{Results validation test VT-01.\relax }{table.caption.370}{}}
\@writefile{lot}{\contentsline {table}{\numberline {6.3}{\ignorespaces Results validation test VT-02.\relax }}{120}{table.caption.371}}
\newlabel{tbl:vt2}{{6.3}{120}{Results validation test VT-02.\relax }{table.caption.371}{}}
\@writefile{lot}{\contentsline {table}{\numberline {6.4}{\ignorespaces Results validation test VT-03.\relax }}{120}{table.caption.372}}
\newlabel{tbl:vt3}{{6.4}{120}{Results validation test VT-03.\relax }{table.caption.372}{}}
\@writefile{lot}{\contentsline {table}{\numberline {6.5}{\ignorespaces Results validation test VT-04.\relax }}{121}{table.caption.373}}
\newlabel{tbl:vt4}{{6.5}{121}{Results validation test VT-04.\relax }{table.caption.373}{}}
\@writefile{lot}{\contentsline {table}{\numberline {6.6}{\ignorespaces Results validation test VT-05.\relax }}{121}{table.caption.374}}
\newlabel{tbl:vt5}{{6.6}{121}{Results validation test VT-05.\relax }{table.caption.374}{}}
\@writefile{lot}{\contentsline {table}{\numberline {6.7}{\ignorespaces Results validation test VT-06.\relax }}{121}{table.caption.375}}
\newlabel{tbl:vt6}{{6.7}{121}{Results validation test VT-06.\relax }{table.caption.375}{}}
\@writefile{lot}{\contentsline {table}{\numberline {6.8}{\ignorespaces Results validation test VT-07.\relax }}{121}{table.caption.376}}
\newlabel{tbl:vt7}{{6.8}{121}{Results validation test VT-07.\relax }{table.caption.376}{}}
\@writefile{lot}{\contentsline {table}{\numberline {6.9}{\ignorespaces Results validation test VT-08.\relax }}{122}{table.caption.377}}
\newlabel{tbl:vt8}{{6.9}{122}{Results validation test VT-08.\relax }{table.caption.377}{}}
\@writefile{lot}{\contentsline {table}{\numberline {6.10}{\ignorespaces Results validation test VT-09.\relax }}{122}{table.caption.378}}
\newlabel{tbl:vt9}{{6.10}{122}{Results validation test VT-09.\relax }{table.caption.378}{}}
\@writefile{lot}{\contentsline {table}{\numberline {6.11}{\ignorespaces Results validation test VT-10.\relax }}{122}{table.caption.379}}
\newlabel{tbl:vt10}{{6.11}{122}{Results validation test VT-10.\relax }{table.caption.379}{}}
\@writefile{lot}{\contentsline {table}{\numberline {6.12}{\ignorespaces Results validation test VT-11.\relax }}{122}{table.caption.380}}
\newlabel{tbl:vt11}{{6.12}{122}{Results validation test VT-11.\relax }{table.caption.380}{}}
\@writefile{lot}{\contentsline {table}{\numberline {6.13}{\ignorespaces Results validation test VT-12.\relax }}{122}{table.caption.381}}
\newlabel{tbl:vt12}{{6.13}{122}{Results validation test VT-12.\relax }{table.caption.381}{}}
\@writefile{lot}{\contentsline {table}{\numberline {6.14}{\ignorespaces Results validation test VT-13.\relax }}{123}{table.caption.382}}
\newlabel{tbl:vt13}{{6.14}{123}{Results validation test VT-13.\relax }{table.caption.382}{}}
\@writefile{lot}{\contentsline {table}{\numberline {6.15}{\ignorespaces Results validation test VT-14.\relax }}{123}{table.caption.383}}
\newlabel{tbl:vt14}{{6.15}{123}{Results validation test VT-14.\relax }{table.caption.383}{}}
\@writefile{lot}{\contentsline {table}{\numberline {6.16}{\ignorespaces Results validation test VT-15.\relax }}{123}{table.caption.384}}
\newlabel{tbl:vt15}{{6.16}{123}{Results validation test VT-15.\relax }{table.caption.384}{}}
\@writefile{lot}{\contentsline {table}{\numberline {6.17}{\ignorespaces Results validation test VT-16.\relax }}{123}{table.caption.385}}
\newlabel{tbl:vt16}{{6.17}{123}{Results validation test VT-16.\relax }{table.caption.385}{}}
\@writefile{lot}{\contentsline {table}{\numberline {6.18}{\ignorespaces Results validation test VT-17.\relax }}{123}{table.caption.386}}
\newlabel{tbl:vt17}{{6.18}{123}{Results validation test VT-17.\relax }{table.caption.386}{}}
\citation{slurm}
\citation{Hockney:1994}
\@writefile{lot}{\contentsline {table}{\numberline {6.19}{\ignorespaces Results validation test VT-18.\relax }}{124}{table.caption.387}}
\newlabel{tbl:vt18}{{6.19}{124}{Results validation test VT-18.\relax }{table.caption.387}{}}
\@writefile{lot}{\contentsline {table}{\numberline {6.20}{\ignorespaces Results validation test VT-19.\relax }}{124}{table.caption.388}}
\newlabel{tbl:vt19}{{6.20}{124}{Results validation test VT-19.\relax }{table.caption.388}{}}
\@writefile{toc}{\contentsline {section}{\numberline {6.2}Hardware platform description and evaluation}{124}{section.389}}
\newlabel{S:hw_desc}{{6.2}{124}{Hardware platform description and evaluation}{section.389}{}}
\@writefile{lot}{\contentsline {table}{\numberline {6.21}{\ignorespaces Cluster node configuration.\relax }}{124}{table.caption.390}}
\newlabel{tbl:hw}{{6.21}{124}{Cluster node configuration.\relax }{table.caption.390}{}}
\citation{ref:hockney_1}
\citation{ref:hockney_3}
\citation{flexmpi}
\citation{ref:hockney_2}
\@writefile{toc}{\contentsline {subsection}{\numberline {6.2.1}Network model}{125}{subsection.391}}
\newlabel{subs:network_model}{{6.2.1}{125}{Network model}{subsection.391}{}}
\citation{turboboost}
\@writefile{lot}{\contentsline {table}{\numberline {6.22}{\ignorespaces Hockney Model network parameter values.\relax }}{126}{table.caption.393}}
\newlabel{T:hockney_parameters}{{6.22}{126}{Hockney Model network parameter values.\relax }{table.caption.393}{}}
\@writefile{toc}{\contentsline {subsection}{\numberline {6.2.2}Turboboost}{126}{subsection.395}}
\newlabel{subs:truboboost}{{6.2.2}{126}{Turboboost}{subsection.395}{}}
\newlabel{RF2}{127}
\@writefile{lot}{\contentsline {table}{\numberline {6.23}{\ignorespaces Cost based on the Hockney model for the used MPI communication primitives.\relax }}{127}{table.caption.394}}
\newlabel{T:ncost}{{6.23}{127}{Cost based on the Hockney model for the used MPI communication primitives.\relax }{table.caption.394}{}}
\citation{5306782}
\@writefile{toc}{\contentsline {section}{\numberline {6.3}Considered benchmarks}{128}{section.397}}
\newlabel{S:benchmarks}{{6.3}{128}{Considered benchmarks}{section.397}{}}
\@writefile{toc}{\contentsline {subsection}{\numberline {6.3.1}Jacobi}{128}{subsection.398}}
\newlabel{Ss:jacobi}{{6.3.1}{128}{Jacobi}{subsection.398}{}}
\citation{ref:matlab}
\@writefile{lof}{\contentsline {figure}{\numberline {6.1}{\ignorespaces Jacobi benchmark behaviour for a growing number of processes.\relax }}{129}{figure.caption.399}}
\newlabel{F:jacobi_process}{{6.1}{129}{Jacobi benchmark behaviour for a growing number of processes.\relax }{figure.caption.399}{}}
\@writefile{lof}{\contentsline {figure}{\numberline {6.2}{\ignorespaces Jacobi benchmark behaviour for a growing matrix size.\relax }}{129}{figure.caption.400}}
\newlabel{F:jacobi_matrix}{{6.2}{129}{Jacobi benchmark behaviour for a growing matrix size.\relax }{figure.caption.400}{}}
\citation{ref:sparse}
\@writefile{toc}{\contentsline {subsection}{\numberline {6.3.2}Conjugate Gradient}{130}{subsection.401}}
\@writefile{lof}{\contentsline {figure}{\numberline {6.3}{\ignorespaces Conjugate Gradient benchmark behaviour for a growing number of processes.\relax }}{131}{figure.caption.402}}
\newlabel{F:gradient_process}{{6.3}{131}{Conjugate Gradient benchmark behaviour for a growing number of processes.\relax }{figure.caption.402}{}}
\@writefile{lof}{\contentsline {figure}{\numberline {6.4}{\ignorespaces Conjugate Gradient benchmark behaviour for a growing matrix size.\relax }}{131}{figure.caption.403}}
\newlabel{F:gradient_matrix}{{6.4}{131}{Conjugate Gradient benchmark behaviour for a growing matrix size.\relax }{figure.caption.403}{}}
\@writefile{toc}{\contentsline {section}{\numberline {6.4}Experimental results}{131}{section.404}}
\newlabel{S:experimentalResults}{{6.4}{131}{Experimental results}{section.404}{}}
\@writefile{lot}{\contentsline {table}{\numberline {6.24}{\ignorespaces Description of the benchmark, the input matrix and the number of initially scheduled processes for each use case.\relax }}{132}{table.caption.405}}
\newlabel{T:bench}{{6.24}{132}{Description of the benchmark, the input matrix and the number of initially scheduled processes for each use case.\relax }{table.caption.405}{}}
\@writefile{toc}{\contentsline {subsection}{\numberline {6.4.1}Energy minimization policy}{132}{subsection.406}}
\@writefile{lof}{\contentsline {figure}{\numberline {6.5}{\ignorespaces Execution times for both the static scheduling and energy-minimization policy for 20\%, 30\% and 40\% performance improvement objectives.\relax }}{133}{figure.caption.407}}
\newlabel{F:GraphsEnergyTimeValues}{{6.5}{133}{Execution times for both the static scheduling and energy-minimization policy for 20\%, 30\% and 40\% performance improvement objectives.\relax }{figure.caption.407}{}}
\@writefile{lof}{\contentsline {figure}{\numberline {6.6}{\ignorespaces Energy consumption for both the static scheduling and energy-minimization policy for 20\%, 30\% and 40\% performance improvement objectives.\relax }}{133}{figure.caption.408}}
\newlabel{F:GraphsEnergyValues}{{6.6}{133}{Energy consumption for both the static scheduling and energy-minimization policy for 20\%, 30\% and 40\% performance improvement objectives.\relax }{figure.caption.408}{}}
\@writefile{lof}{\contentsline {figure}{\numberline {6.7}{\ignorespaces Power per process for the Jacobi benchmark.\relax }}{135}{figure.caption.409}}
\newlabel{F:GraphsPowerPerPRocess}{{6.7}{135}{Power per process for the Jacobi benchmark.\relax }{figure.caption.409}{}}
\@writefile{lof}{\contentsline {figure}{\numberline {6.8}{\ignorespaces Number and process type scheduled by Flex-MPI for use case J.A.3 under the energy minimization policy.\relax }}{135}{figure.caption.410}}
\newlabel{F:GraphsProcessEnergy}{{6.8}{135}{Number and process type scheduled by Flex-MPI for use case J.A.3 under the energy minimization policy.\relax }{figure.caption.410}{}}
\@writefile{lof}{\contentsline {figure}{\numberline {6.9}{\ignorespaces Number and process type scheduled by Flex-MPI for use case CG.A.3 under the energy minimization policy.\relax }}{136}{figure.caption.411}}
\newlabel{F:GraphsProcessEnergy2}{{6.9}{136}{Number and process type scheduled by Flex-MPI for use case CG.A.3 under the energy minimization policy.\relax }{figure.caption.411}{}}
\@writefile{toc}{\contentsline {subsection}{\numberline {6.4.2}Performance-per-watt maximization policy}{136}{subsection.412}}
\@writefile{lof}{\contentsline {figure}{\numberline {6.10}{\ignorespaces Execution times for both the static scheduling and performance-per-watt-maximization policy for 20\%, 30\% and 40\% performance improvement objectives.\relax }}{137}{figure.caption.413}}
\newlabel{F:GraphsMIPSWTimeValues}{{6.10}{137}{Execution times for both the static scheduling and performance-per-watt-maximization policy for 20\%, 30\% and 40\% performance improvement objectives.\relax }{figure.caption.413}{}}
\@writefile{lof}{\contentsline {figure}{\numberline {6.11}{\ignorespaces Energy consumption for both the static scheduling and performance-per-watt-maximization policy for 20\%, 30\% and 40\% performance improvement objectives.\relax }}{138}{figure.caption.414}}
\newlabel{F:GraphsMIPSWValues}{{6.11}{138}{Energy consumption for both the static scheduling and performance-per-watt-maximization policy for 20\%, 30\% and 40\% performance improvement objectives.\relax }{figure.caption.414}{}}
\@writefile{lof}{\contentsline {figure}{\numberline {6.12}{\ignorespaces MIPS/W for Jacobi benchmark, under benchmark mode.\relax }}{139}{figure.caption.415}}
\newlabel{F:GraphsMIPSWprocess}{{6.12}{139}{MIPS/W for Jacobi benchmark, under benchmark mode.\relax }{figure.caption.415}{}}
\@writefile{lof}{\contentsline {figure}{\numberline {6.13}{\ignorespaces MIPS/W per process for Jacobi benchmark, under benchmark mode.\relax }}{140}{figure.caption.416}}
\newlabel{F:GraphsMIPSWprocess2}{{6.13}{140}{MIPS/W per process for Jacobi benchmark, under benchmark mode.\relax }{figure.caption.416}{}}
\@writefile{lof}{\contentsline {figure}{\numberline {6.14}{\ignorespaces Number and process type scheduled by Flex-MPI for test case J.A.3 under the performance-per-watt policy, for a 30\% execution time reduction.\relax }}{141}{figure.caption.417}}
\newlabel{F:GraphsProcessEfficiency}{{6.14}{141}{Number and process type scheduled by Flex-MPI for test case J.A.3 under the performance-per-watt policy, for a 30\% execution time reduction.\relax }{figure.caption.417}{}}
\@writefile{lof}{\contentsline {figure}{\numberline {6.15}{\ignorespaces Number and process type scheduled by Flex-MPI for test case CG.C.9 under the performance-per-watt policy policy, for a 40\% execution time reduction.\relax }}{141}{figure.caption.418}}
\newlabel{F:GraphsProcessEfficiency2}{{6.15}{141}{Number and process type scheduled by Flex-MPI for test case CG.C.9 under the performance-per-watt policy policy, for a 40\% execution time reduction.\relax }{figure.caption.418}{}}
\@setckpt{evaluation}{
\setcounter{page}{142}
\setcounter{equation}{0}
\setcounter{enumi}{8}
\setcounter{enumii}{0}
\setcounter{enumiii}{0}
\setcounter{enumiv}{0}
\setcounter{footnote}{2}
\setcounter{mpfootnote}{0}
\setcounter{part}{0}
\setcounter{chapter}{6}
\setcounter{section}{4}
\setcounter{subsection}{2}
\setcounter{subsubsection}{0}
\setcounter{paragraph}{0}
\setcounter{subparagraph}{0}
\setcounter{figure}{15}
\setcounter{table}{24}
\setcounter{parentequation}{0}
\setcounter{example}{0}
\setcounter{theorem}{0}
\setcounter{ContinuedFloat}{0}
\setcounter{subfigure}{0}
\setcounter{lofdepth}{1}
\setcounter{subtable}{0}
\setcounter{lotdepth}{1}
\setcounter{r@tfl@t}{2}
\setcounter{lstnumber}{1}
\setcounter{Item}{57}
\setcounter{Hfootnote}{17}
\setcounter{bookmark@seq@number}{94}
\setcounter{dummy}{2}
\setcounter{LT@tables}{0}
\setcounter{LT@chunks}{0}
\setcounter{lips@count}{0}
\setcounter{blindtext}{1}
\setcounter{Blindtext}{5}
\setcounter{blind@countparstart}{0}
\setcounter{blindlist}{0}
\setcounter{blindlistlevel}{0}
\setcounter{blindlist@level}{0}
\setcounter{blind@listcount}{0}
\setcounter{blind@levelcount}{0}
\setcounter{blind@randomcount}{0}
\setcounter{blind@randommax}{0}
\setcounter{blind@pangramcount}{0}
\setcounter{blind@pangrammax}{0}
\setcounter{@pps}{0}
\setcounter{@ppsavesec}{0}
\setcounter{@ppsaveapp}{0}
\setcounter{float@type}{16}
\setcounter{algorithm}{4}
\setcounter{ALC@unique}{92}
\setcounter{ALC@line}{46}
\setcounter{ALC@rem}{0}
\setcounter{ALC@depth}{0}
\setcounter{lstlisting}{0}
\setcounter{section@level}{2}
}
