# Fdb version 3
["pdflatex"] 1436620252 "Execution_examples.tex" "Execution_examples.pdf" "Execution_examples" 1436620253
  "/usr/local/texlive/2014/texmf-dist/fonts/map/fontname/texfonts.map" 1272929888 3287 e6b82fe08f5336d4d5ebc73fb1152e87 ""
  "/usr/local/texlive/2014/texmf-dist/fonts/tfm/public/cm/cmtt10.tfm" 1136768653 768 1321e9409b4137d6fb428ac9dc956269 ""
  "/usr/local/texlive/2014/texmf-dist/web2c/texmf.cnf" 1398200874 31722 4f52421e59a4b9e910cf18e64c1f2b4a ""
  "/usr/local/texlive/2014/texmf-var/fonts/map/pdftex/updmap/pdftex.map" 1401025944 1445653 26a0aacf3d70032b1ec192e8c7792117 ""
  "/usr/local/texlive/2014/texmf-var/web2c/pdftex/pdflatex.fmt" 1424261559 3832012 bcb37de5dabedbe70ad04dd80f090c92 ""
  "/usr/local/texlive/2014/texmf.cnf" 1401025936 577 a59edbde8d3a8c549d0eeaab1739e2ff ""
  "Execution_examples.aux" 1436620252 8 a94a2480d3289e625eea47cd1b285758 ""
  "Execution_examples.tex" 1436620252 3215 387ce2b83ab4a8e19f4b45062e1167c8 ""
  (generated)
  "Execution_examples.pdf"
  "Execution_examples.log"
