\relax 
\providecommand\hyper@newdestlabel[2]{}
\citation{VanHeddeghem:2014:TWI:2657027.2657141}
\citation{3234355}
\citation{insidehpc}
\@writefile{toc}{\contentsline {chapter}{\numberline {1}Introduction}{1}{chapter.12}}
\@writefile{lof}{\addvspace {10\p@ }}
\@writefile{lot}{\addvspace {10\p@ }}
\@writefile{toc}{\contentsline {section}{\numberline {1.1}Motivation}{1}{section.13}}
\newlabel{S:motivation}{{1.1}{1}{Motivation}{section.13}{}}
\citation{Google}
\citation{balaji-igcc13-green500}
\citation{ref:geenen}
\citation{ref:geenen}
\citation{ref:geenen}
\citation{ref:hipeac}
\citation{3234355}
\@writefile{lof}{\contentsline {figure}{\numberline {1.1}{\ignorespaces HPC system budget breakdown in academics~\cite  {ref:geenen}.\relax }}{3}{figure.caption.16}}
\providecommand*\caption@xref[2]{\@setref\relax\@undefined{#1}}
\newlabel{F:budget}{{1.1}{3}{HPC system budget breakdown in academics~\cite {ref:geenen}.\relax }{figure.caption.16}{}}
\citation{citeulike:10817006}
\citation{balaji-igcc13-green500}
\citation{ref:insidehpc3}
\@writefile{toc}{\contentsline {section}{\numberline {1.2}Research group context}{5}{section.17}}
\newlabel{S:research_group_context}{{1.2}{5}{Research group context}{section.17}{}}
\@writefile{toc}{\contentsline {section}{\numberline {1.3}Project objectives}{5}{section.18}}
\newlabel{S:project_objectives}{{1.3}{5}{Project objectives}{section.18}{}}
\@writefile{toc}{\contentsline {subsection}{\numberline {1.3.1}Main objectives}{5}{subsection.19}}
\@writefile{toc}{\contentsline {subsection}{\numberline {1.3.2}Secondary objectives}{6}{subsection.20}}
\@writefile{toc}{\contentsline {section}{\numberline {1.4}Document structure}{6}{section.21}}
\newlabel{S:document structure}{{1.4}{6}{Document structure}{section.21}{}}
\@setckpt{introduccion}{
\setcounter{page}{8}
\setcounter{equation}{0}
\setcounter{enumi}{0}
\setcounter{enumii}{0}
\setcounter{enumiii}{0}
\setcounter{enumiv}{0}
\setcounter{footnote}{2}
\setcounter{mpfootnote}{0}
\setcounter{part}{0}
\setcounter{chapter}{1}
\setcounter{section}{4}
\setcounter{subsection}{0}
\setcounter{subsubsection}{0}
\setcounter{paragraph}{0}
\setcounter{subparagraph}{0}
\setcounter{figure}{1}
\setcounter{table}{0}
\setcounter{parentequation}{0}
\setcounter{example}{0}
\setcounter{theorem}{0}
\setcounter{ContinuedFloat}{0}
\setcounter{subfigure}{0}
\setcounter{lofdepth}{1}
\setcounter{subtable}{0}
\setcounter{lotdepth}{1}
\setcounter{r@tfl@t}{0}
\setcounter{lstnumber}{1}
\setcounter{Item}{0}
\setcounter{Hfootnote}{2}
\setcounter{bookmark@seq@number}{15}
\setcounter{dummy}{2}
\setcounter{LT@tables}{0}
\setcounter{LT@chunks}{0}
\setcounter{lips@count}{0}
\setcounter{blindtext}{1}
\setcounter{Blindtext}{5}
\setcounter{blind@countparstart}{0}
\setcounter{blindlist}{0}
\setcounter{blindlistlevel}{0}
\setcounter{blindlist@level}{0}
\setcounter{blind@listcount}{0}
\setcounter{blind@levelcount}{0}
\setcounter{blind@randomcount}{0}
\setcounter{blind@randommax}{0}
\setcounter{blind@pangramcount}{0}
\setcounter{blind@pangrammax}{0}
\setcounter{@pps}{0}
\setcounter{@ppsavesec}{0}
\setcounter{@ppsaveapp}{0}
\setcounter{float@type}{16}
\setcounter{algorithm}{0}
\setcounter{ALC@unique}{0}
\setcounter{ALC@line}{0}
\setcounter{ALC@rem}{0}
\setcounter{ALC@depth}{0}
\setcounter{lstlisting}{0}
\setcounter{section@level}{1}
}
