# Fdb version 3
["pdflatex"] 1430397878 "introduccion.tex" "introduccion.pdf" "introduccion" 1430397879
  "/usr/local/texlive/2014/texmf-dist/fonts/map/fontname/texfonts.map" 1272929888 3287 e6b82fe08f5336d4d5ebc73fb1152e87 ""
  "/usr/local/texlive/2014/texmf-dist/fonts/tfm/public/cm/cmbx10.tfm" 1136768653 1328 c834bbb027764024c09d3d2bf908b5f0 ""
  "/usr/local/texlive/2014/texmf-dist/tex/latex/base/omscmr.fd" 1399675188 2044 e100908319f12bdc42d217e63116726d ""
  "/usr/local/texlive/2014/texmf-dist/web2c/texmf.cnf" 1398200874 31722 4f52421e59a4b9e910cf18e64c1f2b4a ""
  "/usr/local/texlive/2014/texmf-var/web2c/pdftex/pdflatex.fmt" 1424261559 3832012 bcb37de5dabedbe70ad04dd80f090c92 ""
  "/usr/local/texlive/2014/texmf.cnf" 1401025936 577 a59edbde8d3a8c549d0eeaab1739e2ff ""
  "introduccion.aux" 1430397516 1557 f1e05dd9586e8fcd7bed99a424bc78f4 ""
  "introduccion.tex" 1430397878 1288 efdc7bcd400e0735ef71606561ffec6d ""
  (generated)
  "introduccion.pdf"
  "introduccion.log"
