\relax 
\providecommand\hyper@newdestlabel[2]{}
\@writefile{toc}{\contentsline {chapter}{\numberline {4}Project description}{45}{chapter.73}}
\@writefile{lof}{\addvspace {10\p@ }}
\@writefile{lot}{\addvspace {10\p@ }}
\newlabel{ch:project_desc}{{4}{45}{Project description}{chapter.73}{}}
\@writefile{toc}{\contentsline {section}{\numberline {4.1}Requirements elicitation}{45}{section.74}}
\newlabel{sec:req_el}{{4.1}{45}{Requirements elicitation}{section.74}{}}
\citation{ieee1994ieee}
\@writefile{toc}{\contentsline {section}{\numberline {4.2}Requirements Specification}{46}{section.75}}
\newlabel{sec:reqs}{{4.2}{46}{Requirements Specification}{section.75}{}}
\@writefile{lot}{\contentsline {table}{\numberline {4.1}{\ignorespaces Template for the Software Requirements Specification.\relax }}{47}{table.caption.76}}
\newlabel{tbl:hw}{{4.1}{47}{Template for the Software Requirements Specification.\relax }{table.caption.76}{}}
\@writefile{toc}{\contentsline {subsection}{\numberline {4.2.1}User requirements}{48}{subsection.77}}
\@writefile{lot}{\contentsline {table}{\numberline {4.2}{\ignorespaces User Requirement UR-01.\relax }}{48}{table.caption.78}}
\newlabel{tbl:ur_1}{{4.2}{48}{User Requirement UR-01.\relax }{table.caption.78}{}}
\@writefile{lot}{\contentsline {table}{\numberline {4.3}{\ignorespaces User Requirement UR-02.\relax }}{48}{table.caption.79}}
\newlabel{tbl:ur_2}{{4.3}{48}{User Requirement UR-02.\relax }{table.caption.79}{}}
\@writefile{lot}{\contentsline {table}{\numberline {4.4}{\ignorespaces User Requirement UR-03.\relax }}{48}{table.caption.80}}
\newlabel{tbl:ur_3}{{4.4}{48}{User Requirement UR-03.\relax }{table.caption.80}{}}
\@writefile{lot}{\contentsline {table}{\numberline {4.5}{\ignorespaces User Requirement UR-04.\relax }}{48}{table.caption.81}}
\newlabel{tbl:ur_4}{{4.5}{48}{User Requirement UR-04.\relax }{table.caption.81}{}}
\@writefile{lot}{\contentsline {table}{\numberline {4.6}{\ignorespaces User Requirement UR-05.\relax }}{49}{table.caption.82}}
\newlabel{tbl:ur_5}{{4.6}{49}{User Requirement UR-05.\relax }{table.caption.82}{}}
\@writefile{lot}{\contentsline {table}{\numberline {4.7}{\ignorespaces User Requirement UR-06.\relax }}{49}{table.caption.83}}
\newlabel{tbl:ur_6}{{4.7}{49}{User Requirement UR-06.\relax }{table.caption.83}{}}
\@writefile{lot}{\contentsline {table}{\numberline {4.8}{\ignorespaces User Requirement UR-07.\relax }}{49}{table.caption.84}}
\newlabel{tbl:ur_7}{{4.8}{49}{User Requirement UR-07.\relax }{table.caption.84}{}}
\@writefile{lot}{\contentsline {table}{\numberline {4.9}{\ignorespaces User Requirement UR-08.\relax }}{49}{table.caption.85}}
\newlabel{tbl:ur_8}{{4.9}{49}{User Requirement UR-08.\relax }{table.caption.85}{}}
\@writefile{toc}{\contentsline {subsection}{\numberline {4.2.2}Functional Requirements}{50}{subsection.86}}
\@writefile{lot}{\contentsline {table}{\numberline {4.10}{\ignorespaces Functional Requirement FR-01.\relax }}{50}{table.caption.87}}
\newlabel{tbl:fr_1}{{4.10}{50}{Functional Requirement FR-01.\relax }{table.caption.87}{}}
\@writefile{lot}{\contentsline {table}{\numberline {4.11}{\ignorespaces Functional Requirement FR-02.\relax }}{50}{table.caption.88}}
\newlabel{tbl:fr_2}{{4.11}{50}{Functional Requirement FR-02.\relax }{table.caption.88}{}}
\@writefile{lot}{\contentsline {table}{\numberline {4.12}{\ignorespaces Functional Requirement FR-03.\relax }}{50}{table.caption.89}}
\newlabel{tbl:fr_3}{{4.12}{50}{Functional Requirement FR-03.\relax }{table.caption.89}{}}
\@writefile{lot}{\contentsline {table}{\numberline {4.13}{\ignorespaces Functional Requirement FR-04.\relax }}{50}{table.caption.90}}
\newlabel{tbl:fr_4}{{4.13}{50}{Functional Requirement FR-04.\relax }{table.caption.90}{}}
\@writefile{lot}{\contentsline {table}{\numberline {4.14}{\ignorespaces Functional Requirement FR-05.\relax }}{51}{table.caption.91}}
\newlabel{tbl:fr_5}{{4.14}{51}{Functional Requirement FR-05.\relax }{table.caption.91}{}}
\@writefile{lot}{\contentsline {table}{\numberline {4.15}{\ignorespaces Functional Requirement FR-06.\relax }}{51}{table.caption.92}}
\newlabel{tbl:fr_6}{{4.15}{51}{Functional Requirement FR-06.\relax }{table.caption.92}{}}
\@writefile{lot}{\contentsline {table}{\numberline {4.16}{\ignorespaces Functional Requirement FR-07.\relax }}{51}{table.caption.93}}
\newlabel{tbl:fr_7}{{4.16}{51}{Functional Requirement FR-07.\relax }{table.caption.93}{}}
\@writefile{lot}{\contentsline {table}{\numberline {4.17}{\ignorespaces Functional Requirement FR-08.\relax }}{51}{table.caption.94}}
\newlabel{tbl:fr_8}{{4.17}{51}{Functional Requirement FR-08.\relax }{table.caption.94}{}}
\@writefile{lot}{\contentsline {table}{\numberline {4.18}{\ignorespaces Functional Requirement FR-09.\relax }}{51}{table.caption.95}}
\newlabel{tbl:fr_9}{{4.18}{51}{Functional Requirement FR-09.\relax }{table.caption.95}{}}
\@writefile{lot}{\contentsline {table}{\numberline {4.19}{\ignorespaces Functional Requirement FR-10.\relax }}{52}{table.caption.96}}
\newlabel{tbl:fr_10}{{4.19}{52}{Functional Requirement FR-10.\relax }{table.caption.96}{}}
\@writefile{lot}{\contentsline {table}{\numberline {4.20}{\ignorespaces Functional Requirement FR-11.\relax }}{52}{table.caption.97}}
\newlabel{tbl:fr_11}{{4.20}{52}{Functional Requirement FR-11.\relax }{table.caption.97}{}}
\@writefile{lot}{\contentsline {table}{\numberline {4.21}{\ignorespaces Functional Requirement FR-12.\relax }}{52}{table.caption.98}}
\newlabel{tbl:fr_12}{{4.21}{52}{Functional Requirement FR-12.\relax }{table.caption.98}{}}
\@writefile{lot}{\contentsline {table}{\numberline {4.22}{\ignorespaces Functional Requirement FR-13.\relax }}{52}{table.caption.99}}
\newlabel{tbl:fr_13}{{4.22}{52}{Functional Requirement FR-13.\relax }{table.caption.99}{}}
\@writefile{lot}{\contentsline {table}{\numberline {4.23}{\ignorespaces Functional Requirement FR-14.\relax }}{53}{table.caption.100}}
\newlabel{tbl:fr_14}{{4.23}{53}{Functional Requirement FR-14.\relax }{table.caption.100}{}}
\@writefile{lot}{\contentsline {table}{\numberline {4.24}{\ignorespaces Functional Requirement FR-15.\relax }}{53}{table.caption.101}}
\newlabel{tbl:fr_15}{{4.24}{53}{Functional Requirement FR-15.\relax }{table.caption.101}{}}
\@writefile{lot}{\contentsline {table}{\numberline {4.25}{\ignorespaces Functional Requirement FR-16.\relax }}{53}{table.caption.102}}
\newlabel{tbl:fr_16}{{4.25}{53}{Functional Requirement FR-16.\relax }{table.caption.102}{}}
\@writefile{lot}{\contentsline {table}{\numberline {4.26}{\ignorespaces Functional Requirement FR-17.\relax }}{54}{table.caption.103}}
\newlabel{tbl:fr_17}{{4.26}{54}{Functional Requirement FR-17.\relax }{table.caption.103}{}}
\@writefile{lot}{\contentsline {table}{\numberline {4.27}{\ignorespaces Functional Requirement FR-18.\relax }}{54}{table.caption.104}}
\newlabel{tbl:fr_18}{{4.27}{54}{Functional Requirement FR-18.\relax }{table.caption.104}{}}
\@writefile{lot}{\contentsline {table}{\numberline {4.28}{\ignorespaces Functional Requirement FR-19.\relax }}{54}{table.caption.105}}
\newlabel{tbl:fr_19}{{4.28}{54}{Functional Requirement FR-19.\relax }{table.caption.105}{}}
\@writefile{lot}{\contentsline {table}{\numberline {4.29}{\ignorespaces Functional Requirement FR-20.\relax }}{54}{table.caption.106}}
\newlabel{tbl:fr_20}{{4.29}{54}{Functional Requirement FR-20.\relax }{table.caption.106}{}}
\@writefile{lot}{\contentsline {table}{\numberline {4.30}{\ignorespaces Functional Requirement FR-21.\relax }}{55}{table.caption.107}}
\newlabel{tbl:fr_21}{{4.30}{55}{Functional Requirement FR-21.\relax }{table.caption.107}{}}
\@writefile{lot}{\contentsline {table}{\numberline {4.31}{\ignorespaces Functional Requirement FR-22.\relax }}{55}{table.caption.108}}
\newlabel{tbl:fr_22}{{4.31}{55}{Functional Requirement FR-22.\relax }{table.caption.108}{}}
\@writefile{lot}{\contentsline {table}{\numberline {4.32}{\ignorespaces Functional Requirement FR-23.\relax }}{55}{table.caption.109}}
\newlabel{tbl:fr_23}{{4.32}{55}{Functional Requirement FR-23.\relax }{table.caption.109}{}}
\@writefile{lot}{\contentsline {table}{\numberline {4.33}{\ignorespaces Functional Requirement FR-24.\relax }}{55}{table.caption.110}}
\newlabel{tbl:fr_24}{{4.33}{55}{Functional Requirement FR-24.\relax }{table.caption.110}{}}
\@writefile{lot}{\contentsline {table}{\numberline {4.34}{\ignorespaces Functional Requirement FR-25.\relax }}{56}{table.caption.111}}
\newlabel{tbl:fr_25}{{4.34}{56}{Functional Requirement FR-25.\relax }{table.caption.111}{}}
\@writefile{lot}{\contentsline {table}{\numberline {4.35}{\ignorespaces Functional Requirement FR-26.\relax }}{56}{table.caption.112}}
\newlabel{tbl:fr_26}{{4.35}{56}{Functional Requirement FR-26.\relax }{table.caption.112}{}}
\@writefile{lot}{\contentsline {table}{\numberline {4.36}{\ignorespaces Functional Requirement FR-27.\relax }}{56}{table.caption.113}}
\newlabel{tbl:fr_27}{{4.36}{56}{Functional Requirement FR-27.\relax }{table.caption.113}{}}
\@writefile{lot}{\contentsline {table}{\numberline {4.37}{\ignorespaces Functional Requirement FR-28.\relax }}{56}{table.caption.114}}
\newlabel{tbl:fr_28}{{4.37}{56}{Functional Requirement FR-28.\relax }{table.caption.114}{}}
\@writefile{lot}{\contentsline {table}{\numberline {4.38}{\ignorespaces Functional Requirement FR-29.\relax }}{56}{table.caption.115}}
\newlabel{tbl:fr_29}{{4.38}{56}{Functional Requirement FR-29.\relax }{table.caption.115}{}}
\@writefile{lot}{\contentsline {table}{\numberline {4.39}{\ignorespaces Functional Requirement FR-30.\relax }}{57}{table.caption.116}}
\newlabel{tbl:fr_30}{{4.39}{57}{Functional Requirement FR-30.\relax }{table.caption.116}{}}
\@writefile{lot}{\contentsline {table}{\numberline {4.40}{\ignorespaces Functional Requirement FR-31.\relax }}{57}{table.caption.117}}
\newlabel{tbl:fr_31}{{4.40}{57}{Functional Requirement FR-31.\relax }{table.caption.117}{}}
\@writefile{lot}{\contentsline {table}{\numberline {4.41}{\ignorespaces Functional Requirement FR-32.\relax }}{57}{table.caption.118}}
\newlabel{tbl:fr_32}{{4.41}{57}{Functional Requirement FR-32.\relax }{table.caption.118}{}}
\@writefile{lot}{\contentsline {table}{\numberline {4.42}{\ignorespaces Functional Requirement FR-33.\relax }}{57}{table.caption.119}}
\newlabel{tbl:fr_33}{{4.42}{57}{Functional Requirement FR-33.\relax }{table.caption.119}{}}
\@writefile{lot}{\contentsline {table}{\numberline {4.43}{\ignorespaces Functional Requirement FR-34.\relax }}{58}{table.caption.120}}
\newlabel{tbl:fr_34}{{4.43}{58}{Functional Requirement FR-34.\relax }{table.caption.120}{}}
\@writefile{lot}{\contentsline {table}{\numberline {4.44}{\ignorespaces Functional Requirement FR-35.\relax }}{58}{table.caption.121}}
\newlabel{tbl:fr_35}{{4.44}{58}{Functional Requirement FR-35.\relax }{table.caption.121}{}}
\@writefile{lot}{\contentsline {table}{\numberline {4.45}{\ignorespaces Functional Requirement FR-36.\relax }}{58}{table.caption.122}}
\newlabel{tbl:fr_36}{{4.45}{58}{Functional Requirement FR-36.\relax }{table.caption.122}{}}
\@writefile{toc}{\contentsline {subsection}{\numberline {4.2.3}Non-Functional Requirements}{58}{subsection.123}}
\@writefile{lot}{\contentsline {table}{\numberline {4.46}{\ignorespaces Non-functional Requirement NFR-01.\relax }}{59}{table.caption.124}}
\newlabel{tbl:nfr_1}{{4.46}{59}{Non-functional Requirement NFR-01.\relax }{table.caption.124}{}}
\@writefile{lot}{\contentsline {table}{\numberline {4.47}{\ignorespaces Non-functional Requirement NFR-02.\relax }}{59}{table.caption.125}}
\newlabel{tbl:nfr_2}{{4.47}{59}{Non-functional Requirement NFR-02.\relax }{table.caption.125}{}}
\@writefile{lot}{\contentsline {table}{\numberline {4.48}{\ignorespaces Non-functional Requirement NFR-03.\relax }}{59}{table.caption.126}}
\newlabel{tbl:nfr_3}{{4.48}{59}{Non-functional Requirement NFR-03.\relax }{table.caption.126}{}}
\@writefile{lot}{\contentsline {table}{\numberline {4.49}{\ignorespaces Non-functional Requirement NFR-04.\relax }}{59}{table.caption.127}}
\newlabel{tbl:nfr_4}{{4.49}{59}{Non-functional Requirement NFR-04.\relax }{table.caption.127}{}}
\@writefile{lot}{\contentsline {table}{\numberline {4.50}{\ignorespaces Non-functional Requirement NFR-05.\relax }}{59}{table.caption.128}}
\newlabel{tbl:nfr_5}{{4.50}{59}{Non-functional Requirement NFR-05.\relax }{table.caption.128}{}}
\@writefile{lot}{\contentsline {table}{\numberline {4.51}{\ignorespaces Non-functional Requirement NFR-06.\relax }}{60}{table.caption.129}}
\newlabel{tbl:nfr_6}{{4.51}{60}{Non-functional Requirement NFR-06.\relax }{table.caption.129}{}}
\@writefile{lot}{\contentsline {table}{\numberline {4.52}{\ignorespaces Non-functional Requirement NFR-07.\relax }}{60}{table.caption.130}}
\newlabel{tbl:nfr_7}{{4.52}{60}{Non-functional Requirement NFR-07.\relax }{table.caption.130}{}}
\@writefile{lot}{\contentsline {table}{\numberline {4.53}{\ignorespaces Non-functional Requirement NFR-08.\relax }}{60}{table.caption.131}}
\newlabel{tbl:nfr_8}{{4.53}{60}{Non-functional Requirement NFR-08.\relax }{table.caption.131}{}}
\@writefile{lot}{\contentsline {table}{\numberline {4.54}{\ignorespaces Functional Requirement NFR-09.\relax }}{60}{table.caption.132}}
\newlabel{tbl:nfr_9}{{4.54}{60}{Functional Requirement NFR-09.\relax }{table.caption.132}{}}
\@writefile{toc}{\contentsline {section}{\numberline {4.3}Use case}{61}{section.133}}
\newlabel{S:use_case}{{4.3}{61}{Use case}{section.133}{}}
\@writefile{lof}{\contentsline {figure}{\numberline {4.1}{\ignorespaces Different uses cases of Flex-MPI.\relax }}{61}{figure.caption.134}}
\newlabel{F:usecase}{{4.1}{61}{Different uses cases of Flex-MPI.\relax }{figure.caption.134}{}}
\@writefile{toc}{\contentsline {section}{\numberline {4.4}Validation tests}{61}{section.135}}
\newlabel{sec:validation_tests}{{4.4}{61}{Validation tests}{section.135}{}}
\@writefile{lot}{\contentsline {table}{\numberline {4.55}{\ignorespaces Template for the Validation tests.\relax }}{62}{table.caption.136}}
\newlabel{tbl:vt-00}{{4.55}{62}{Template for the Validation tests.\relax }{table.caption.136}{}}
\@writefile{toc}{\contentsline {subsection}{\numberline {4.4.1}Validation tests}{62}{subsection.137}}
\@writefile{lot}{\contentsline {table}{\numberline {4.56}{\ignorespaces Validation Test VT-01.\relax }}{63}{table.caption.138}}
\newlabel{tbl:vt-01}{{4.56}{63}{Validation Test VT-01.\relax }{table.caption.138}{}}
\@writefile{lot}{\contentsline {table}{\numberline {4.57}{\ignorespaces Validation Test VT-02.\relax }}{63}{table.caption.141}}
\newlabel{tbl:vt-02}{{4.57}{63}{Validation Test VT-02.\relax }{table.caption.141}{}}
\@writefile{lot}{\contentsline {table}{\numberline {4.58}{\ignorespaces Validation Test VT-03.\relax }}{64}{table.caption.144}}
\newlabel{tbl:vt-03}{{4.58}{64}{Validation Test VT-03.\relax }{table.caption.144}{}}
\@writefile{lot}{\contentsline {table}{\numberline {4.59}{\ignorespaces Validation Test VT-04.\relax }}{64}{table.caption.148}}
\newlabel{tbl:vt-04}{{4.59}{64}{Validation Test VT-04.\relax }{table.caption.148}{}}
\@writefile{lot}{\contentsline {table}{\numberline {4.60}{\ignorespaces Validation Test VT-05.\relax }}{65}{table.caption.153}}
\newlabel{tbl:vt-05}{{4.60}{65}{Validation Test VT-05.\relax }{table.caption.153}{}}
\@writefile{lot}{\contentsline {table}{\numberline {4.61}{\ignorespaces Validation Test VT-06.\relax }}{66}{table.caption.159}}
\newlabel{tbl:vt-06}{{4.61}{66}{Validation Test VT-06.\relax }{table.caption.159}{}}
\@writefile{lot}{\contentsline {table}{\numberline {4.62}{\ignorespaces Validation Test VT-07.\relax }}{67}{table.caption.161}}
\newlabel{tbl:vt-07}{{4.62}{67}{Validation Test VT-07.\relax }{table.caption.161}{}}
\@writefile{lot}{\contentsline {table}{\numberline {4.63}{\ignorespaces Validation Test VT-08.\relax }}{68}{table.caption.168}}
\newlabel{tbl:vt-08}{{4.63}{68}{Validation Test VT-08.\relax }{table.caption.168}{}}
\@writefile{lot}{\contentsline {table}{\numberline {4.64}{\ignorespaces Validation Test VT-09.\relax }}{69}{table.caption.170}}
\newlabel{tbl:vt-09}{{4.64}{69}{Validation Test VT-09.\relax }{table.caption.170}{}}
\@writefile{lot}{\contentsline {table}{\numberline {4.65}{\ignorespaces Validation Test VT-10.\relax }}{69}{table.caption.172}}
\newlabel{tbl:vt-10}{{4.65}{69}{Validation Test VT-10.\relax }{table.caption.172}{}}
\@writefile{lot}{\contentsline {table}{\numberline {4.66}{\ignorespaces Validation Test VT-11.\relax }}{70}{table.caption.175}}
\newlabel{tbl:vt-11}{{4.66}{70}{Validation Test VT-11.\relax }{table.caption.175}{}}
\@writefile{lot}{\contentsline {table}{\numberline {4.67}{\ignorespaces Validation Test VT-12.\relax }}{70}{table.caption.178}}
\newlabel{tbl:vt-12}{{4.67}{70}{Validation Test VT-12.\relax }{table.caption.178}{}}
\@writefile{lot}{\contentsline {table}{\numberline {4.68}{\ignorespaces Validation Test VT-13.\relax }}{71}{table.caption.181}}
\newlabel{tbl:vt-13}{{4.68}{71}{Validation Test VT-13.\relax }{table.caption.181}{}}
\@writefile{lot}{\contentsline {table}{\numberline {4.69}{\ignorespaces Validation Test VT-14.\relax }}{71}{table.caption.184}}
\newlabel{tbl:vt-14}{{4.69}{71}{Validation Test VT-14.\relax }{table.caption.184}{}}
\@writefile{lot}{\contentsline {table}{\numberline {4.70}{\ignorespaces Validation Test VT-15.\relax }}{72}{table.caption.187}}
\newlabel{tbl:vt-15}{{4.70}{72}{Validation Test VT-15.\relax }{table.caption.187}{}}
\@writefile{lot}{\contentsline {table}{\numberline {4.71}{\ignorespaces Validation Test VT-16.\relax }}{72}{table.caption.189}}
\newlabel{tbl:vt-16}{{4.71}{72}{Validation Test VT-16.\relax }{table.caption.189}{}}
\@writefile{lot}{\contentsline {table}{\numberline {4.72}{\ignorespaces Validation Test VT-17.\relax }}{73}{table.caption.191}}
\newlabel{tbl:vt-17}{{4.72}{73}{Validation Test VT-17.\relax }{table.caption.191}{}}
\@writefile{lot}{\contentsline {table}{\numberline {4.73}{\ignorespaces Validation Test VT-18.\relax }}{73}{table.caption.194}}
\newlabel{tbl:vt-18}{{4.73}{73}{Validation Test VT-18.\relax }{table.caption.194}{}}
\@writefile{lot}{\contentsline {table}{\numberline {4.74}{\ignorespaces Validation Test VT-19.\relax }}{74}{table.caption.198}}
\newlabel{tbl:vt-19}{{4.74}{74}{Validation Test VT-19.\relax }{table.caption.198}{}}
\@writefile{toc}{\contentsline {section}{\numberline {4.5}Traceability matrix}{74}{section.202}}
\newlabel{S:matrix}{{4.5}{74}{Traceability matrix}{section.202}{}}
\@writefile{toc}{\contentsline {section}{\numberline {4.6}Feasibility study}{74}{section.204}}
\newlabel{S:feasibility_study}{{4.6}{74}{Feasibility study}{section.204}{}}
\@writefile{toc}{\contentsline {subsection}{\numberline {4.6.1}Technical constraints}{74}{subsection.205}}
\newlabel{RF1}{75}
\@writefile{lot}{\contentsline {table}{\numberline {4.75}{\ignorespaces Traceability matrix.\relax }}{75}{table.caption.203}}
\newlabel{T:tmax}{{4.75}{75}{Traceability matrix.\relax }{table.caption.203}{}}
\citation{ref:papi_timers}
\@writefile{toc}{\contentsline {subsection}{\numberline {4.6.2}Sociocultural constraints}{76}{subsection.206}}
\citation{3234355}
\citation{ref:cores}
\@writefile{toc}{\contentsline {subsection}{\numberline {4.6.3}Economic constraints}{77}{subsection.207}}
\citation{ref:BOE}
\citation{Boehm:1986:SMS:12944.12948}
\@writefile{toc}{\contentsline {subsection}{\numberline {4.6.4}Legal constraints}{78}{subsection.208}}
\@writefile{toc}{\contentsline {section}{\numberline {4.7}Project planning}{78}{section.209}}
\newlabel{sec:planning}{{4.7}{78}{Project planning}{section.209}{}}
\@writefile{toc}{\contentsline {subsection}{\numberline {4.7.1}Development phases}{78}{subsection.210}}
\newlabel{s:dev_phases}{{4.7.1}{78}{Development phases}{subsection.210}{}}
\citation{SDWSDEPR.BJJJ20000101}
\citation{SDWSDEPR.BJJJ20000101}
\citation{SDWSDEPR.BJJJ20000101}
\@writefile{lof}{\contentsline {figure}{\numberline {4.2}{\ignorespaces Spiral life-cycle software development model~\cite  {SDWSDEPR.BJJJ20000101}. \relax }}{80}{figure.caption.215}}
\newlabel{F:spiral}{{4.2}{80}{Spiral life-cycle software development model~\cite {SDWSDEPR.BJJJ20000101}. \relax }{figure.caption.215}{}}
\@writefile{toc}{\contentsline {subsection}{\numberline {4.7.2}Temporal planning}{80}{subsection.216}}
\newlabel{Ss:temporal_plan}{{4.7.2}{80}{Temporal planning}{subsection.216}{}}
\@writefile{lot}{\contentsline {table}{\numberline {4.76}{\ignorespaces Original temporal planning.\relax }}{81}{table.caption.217}}
\newlabel{T:original_planning}{{4.76}{81}{Original temporal planning.\relax }{table.caption.217}{}}
\@writefile{lof}{\contentsline {figure}{\numberline {4.3}{\ignorespaces Gantt Chart showing the project's original temporal planning.\relax }}{82}{figure.caption.218}}
\newlabel{F:gantt}{{4.3}{82}{Gantt Chart showing the project's original temporal planning.\relax }{figure.caption.218}{}}
\citation{ref:contr}
\citation{ref:sociedades}
\@writefile{lot}{\contentsline {table}{\numberline {4.77}{\ignorespaces Final temporal planning.\relax }}{83}{table.caption.219}}
\newlabel{T:final_planning}{{4.77}{83}{Final temporal planning.\relax }{table.caption.219}{}}
\@writefile{toc}{\contentsline {subsection}{\numberline {4.7.3}Costs planning}{83}{subsection.221}}
\newlabel{Ss:costs}{{4.7.3}{83}{Costs planning}{subsection.221}{}}
\@writefile{lot}{\contentsline {table}{\numberline {4.78}{\ignorespaces Cost projection for physical resources.\relax }}{83}{table.caption.222}}
\newlabel{tbl:cost_phy_res}{{4.78}{83}{Cost projection for physical resources.\relax }{table.caption.222}{}}
\@writefile{lof}{\contentsline {figure}{\numberline {4.4}{\ignorespaces Gantt Chart showing the project's final temporal planning.\relax }}{84}{figure.caption.220}}
\newlabel{F:gantt2}{{4.4}{84}{Gantt Chart showing the project's final temporal planning.\relax }{figure.caption.220}{}}
\citation{ref:tarifa_luz}
\citation{ref:seg_soc}
\@writefile{lot}{\contentsline {table}{\numberline {4.79}{\ignorespaces Cost projection for fungible resources.\relax }}{85}{table.caption.223}}
\newlabel{tbl:fung_res}{{4.79}{85}{Cost projection for fungible resources.\relax }{table.caption.223}{}}
\@writefile{lot}{\contentsline {table}{\numberline {4.80}{\ignorespaces Cost projection for human resources.\relax }}{86}{table.caption.225}}
\newlabel{tbl:cost_hum_res}{{4.80}{86}{Cost projection for human resources.\relax }{table.caption.225}{}}
\@writefile{lot}{\contentsline {table}{\numberline {4.81}{\ignorespaces Total costs projection.\relax }}{86}{table.caption.226}}
\newlabel{tbl:cost_tot}{{4.81}{86}{Total costs projection.\relax }{table.caption.226}{}}
\@setckpt{project_description}{
\setcounter{page}{87}
\setcounter{equation}{0}
\setcounter{enumi}{4}
\setcounter{enumii}{0}
\setcounter{enumiii}{0}
\setcounter{enumiv}{0}
\setcounter{footnote}{1}
\setcounter{mpfootnote}{0}
\setcounter{part}{0}
\setcounter{chapter}{4}
\setcounter{section}{7}
\setcounter{subsection}{3}
\setcounter{subsubsection}{0}
\setcounter{paragraph}{0}
\setcounter{subparagraph}{0}
\setcounter{figure}{4}
\setcounter{table}{81}
\setcounter{parentequation}{0}
\setcounter{example}{0}
\setcounter{theorem}{0}
\setcounter{ContinuedFloat}{0}
\setcounter{subfigure}{0}
\setcounter{lofdepth}{1}
\setcounter{subtable}{0}
\setcounter{lotdepth}{1}
\setcounter{r@tfl@t}{1}
\setcounter{lstnumber}{1}
\setcounter{Item}{49}
\setcounter{Hfootnote}{12}
\setcounter{bookmark@seq@number}{65}
\setcounter{dummy}{2}
\setcounter{LT@tables}{0}
\setcounter{LT@chunks}{0}
\setcounter{lips@count}{0}
\setcounter{blindtext}{1}
\setcounter{Blindtext}{5}
\setcounter{blind@countparstart}{0}
\setcounter{blindlist}{0}
\setcounter{blindlistlevel}{0}
\setcounter{blindlist@level}{0}
\setcounter{blind@listcount}{0}
\setcounter{blind@levelcount}{0}
\setcounter{blind@randomcount}{0}
\setcounter{blind@randommax}{0}
\setcounter{blind@pangramcount}{0}
\setcounter{blind@pangrammax}{0}
\setcounter{@pps}{0}
\setcounter{@ppsavesec}{0}
\setcounter{@ppsaveapp}{0}
\setcounter{float@type}{16}
\setcounter{algorithm}{0}
\setcounter{ALC@unique}{0}
\setcounter{ALC@line}{0}
\setcounter{ALC@rem}{0}
\setcounter{ALC@depth}{0}
\setcounter{lstlisting}{0}
\setcounter{section@level}{2}
}
