\relax 
\providecommand\hyper@newdestlabel[2]{}
\citation{Mucci99papi:a}
\@writefile{toc}{\contentsline {chapter}{\numberline {5}Proposal}{87}{chapter.227}}
\@writefile{lof}{\addvspace {10\p@ }}
\@writefile{lot}{\addvspace {10\p@ }}
\newlabel{ch:proposal}{{5}{87}{Proposal}{chapter.227}{}}
\@writefile{toc}{\contentsline {section}{\numberline {5.1}Flex-MPI overview}{87}{section.228}}
\newlabel{S:library}{{5.1}{87}{Flex-MPI overview}{section.228}{}}
\citation{4021918}
\@writefile{lof}{\contentsline {figure}{\numberline {5.1}{\ignorespaces Modular execution environment of a Flex-MPI application.\relax }}{89}{figure.caption.229}}
\newlabel{F:flex_library}{{5.1}{89}{Modular execution environment of a Flex-MPI application.\relax }{figure.caption.229}{}}
\citation{6650976}
\citation{flexmpi}
\@writefile{lof}{\contentsline {figure}{\numberline {5.2}{\ignorespaces Comparison of the legacy code (left) and the instrumented Flex-MPI code (right) of an iterative MPI application.\relax }}{92}{figure.caption.230}}
\newlabel{F:flex_code}{{5.2}{92}{Comparison of the legacy code (left) and the instrumented Flex-MPI code (right) of an iterative MPI application.\relax }{figure.caption.230}{}}
\@writefile{toc}{\contentsline {subsection}{\numberline {5.1.1}Application internal flow}{93}{subsection.231}}
\citation{flexmpi}
\citation{flexmpi}
\citation{flexmpi}
\citation{flexmpi}
\@writefile{toc}{\contentsline {section}{\numberline {5.2}Guided policy}{94}{section.241}}
\newlabel{S:guided_policy}{{5.2}{94}{Guided policy}{section.241}{}}
\@writefile{lof}{\contentsline {figure}{\numberline {5.3}{\ignorespaces Program flow of a Flex-MPI application~\cite  {flexmpi}.\relax }}{95}{figure.caption.240}}
\newlabel{F:flow}{{5.3}{95}{Program flow of a Flex-MPI application~\cite {flexmpi}.\relax }{figure.caption.240}{}}
\@writefile{lof}{\contentsline {figure}{\numberline {5.4}{\ignorespaces Flex-MPI internal function dependencies.\relax }}{96}{figure.caption.242}}
\newlabel{F:flexcall}{{5.4}{96}{Flex-MPI internal function dependencies.\relax }{figure.caption.242}{}}
\@writefile{loa}{\contentsline {algorithm}{\numberline {1}{\ignorespaces Guided reconfiguring algorithm.\relax }}{98}{algorithm.243}}
\newlabel{A:guided}{{1}{98}{Guided reconfiguring algorithm.\relax }{algorithm.243}{}}
\@writefile{lof}{\contentsline {figure}{\numberline {5.5}{\ignorespaces Sequence diagram for the execution of the guided policy.\relax }}{98}{figure.caption.256}}
\newlabel{F:seq_guided}{{5.5}{98}{Sequence diagram for the execution of the guided policy.\relax }{figure.caption.256}{}}
\@writefile{toc}{\contentsline {section}{\numberline {5.3}Energy-aware malleability policies}{98}{section.257}}
\newlabel{S:malleability_policies}{{5.3}{98}{Energy-aware malleability policies}{section.257}{}}
\citation{Barroso:2005:PP:1095408.1095420}
\citation{Barroso:2005:PP:1095408.1095420}
\citation{ref:cnet}
\citation{ref:green2}
\citation{ref:hpl}
\@writefile{toc}{\contentsline {subsection}{\numberline {5.3.1}Energy minimization policy}{99}{subsection.258}}
\@writefile{toc}{\contentsline {subsection}{\numberline {5.3.2}Energy-efficiency maximization policy}{99}{subsection.259}}
\newlabel{Ss:energy-eff}{{5.3.2}{99}{Energy-efficiency maximization policy}{subsection.259}{}}
\citation{ref:per_what}
\@writefile{lof}{\contentsline {figure}{\numberline {5.6}{\ignorespaces Relation between yielded MIPS and FLOPS for each iteration of the considered benchmarks in class c8.\relax }}{100}{figure.caption.260}}
\newlabel{F:GraphsMIPSFLOPS}{{5.6}{100}{Relation between yielded MIPS and FLOPS for each iteration of the considered benchmarks in class c8.\relax }{figure.caption.260}{}}
\citation{Mavridis2012YCoCg}
\@writefile{lof}{\contentsline {figure}{\numberline {5.7}{\ignorespaces Relation between yielded MIPS and FLOPS for the considered benchmarks in class c8, for a growing number of processes.\relax }}{101}{figure.caption.261}}
\newlabel{F:GraphsMIPSFLOPS2}{{5.7}{101}{Relation between yielded MIPS and FLOPS for the considered benchmarks in class c8, for a growing number of processes.\relax }{figure.caption.261}{}}
\@writefile{toc}{\contentsline {section}{\numberline {5.4}Models}{101}{section.262}}
\newlabel{S:models}{{5.4}{101}{Models}{section.262}{}}
\@writefile{toc}{\contentsline {subsection}{\numberline {5.4.1}Energy prediction model}{101}{subsection.263}}
\newlabel{Energy}{{5.4.1}{101}{Energy prediction model}{subsection.263}{}}
\citation{6148200}
\citation{6148200}
\citation{6557170}
\citation{6148200}
\citation{6148200}
\@writefile{lof}{\contentsline {figure}{\numberline {5.8}{\ignorespaces Predicted and actual power of the CPU, processor graphics, and total package~\cite  {6148200}.\relax }}{102}{figure.caption.265}}
\newlabel{F:rotem}{{5.8}{102}{Predicted and actual power of the CPU, processor graphics, and total package~\cite {6148200}.\relax }{figure.caption.265}{}}
\@writefile{lof}{\contentsline {figure}{\numberline {5.9}{\ignorespaces Power consumption per sampling interval for Jacobi and Conjugate Gradient.\relax }}{103}{figure.caption.266}}
\newlabel{F:GraphsPower}{{5.9}{103}{Power consumption per sampling interval for Jacobi and Conjugate Gradient.\relax }{figure.caption.266}{}}
\@writefile{lof}{\contentsline {figure}{\numberline {5.10}{\ignorespaces Collection of collected power values per sampling interval for Jacobi on compute 9 class.\relax }}{104}{figure.caption.267}}
\newlabel{F:GraphsPowerValues}{{5.10}{104}{Collection of collected power values per sampling interval for Jacobi on compute 9 class.\relax }{figure.caption.267}{}}
\@writefile{loa}{\contentsline {algorithm}{\numberline {2}{\ignorespaces Energy prediction model.\relax }}{105}{algorithm.269}}
\newlabel{A:energymodel}{{2}{105}{Energy prediction model.\relax }{algorithm.269}{}}
\@writefile{toc}{\contentsline {subsection}{\numberline {5.4.2}Energy-efficiency prediction model}{105}{subsection.283}}
\@writefile{lof}{\contentsline {figure}{\numberline {5.11}{\ignorespaces Example of the effect of $\alpha $ and $\beta $ parameters in the energy modelled for $\alpha =0.8$ and $\beta =4$.\relax }}{106}{figure.caption.282}}
\newlabel{F:GraphsPowerExample}{{5.11}{106}{Example of the effect of $\alpha $ and $\beta $ parameters in the energy modelled for $\alpha =0.8$ and $\beta =4$.\relax }{figure.caption.282}{}}
\@writefile{loa}{\contentsline {algorithm}{\numberline {3}{\ignorespaces Energy-efficiency prediction model.\relax }}{107}{algorithm.284}}
\newlabel{A:energymodel2}{{3}{107}{Energy-efficiency prediction model.\relax }{algorithm.284}{}}
\newlabel{energy_eff}{{5.4.2}{107}{Energy-efficiency prediction model}{ALC@unique.306}{}}
\@writefile{toc}{\contentsline {section}{\numberline {5.5}Algorithms}{107}{section.307}}
\newlabel{S:alg}{{5.5}{107}{Algorithms}{section.307}{}}
\@writefile{toc}{\contentsline {subsection}{\numberline {5.5.1}Energy-minimization policy}{107}{subsection.308}}
\newlabel{EnergyEff}{{5.5.1}{107}{Energy-minimization policy}{subsection.308}{}}
\@writefile{loa}{\contentsline {algorithm}{\numberline {4}{\ignorespaces Energy-aware reconfiguring algorithm.\relax }}{109}{algorithm.309}}
\newlabel{A:reconfiguring}{{4}{109}{Energy-aware reconfiguring algorithm.\relax }{algorithm.309}{}}
\citation{Dantzig98a}
\@writefile{toc}{\contentsline {subsection}{\numberline {5.5.2}Energy-efficiency maximization policy}{112}{subsection.358}}
\@writefile{toc}{\contentsline {section}{\numberline {5.6}Linear-programming problems}{112}{section.360}}
\newlabel{S:lpps}{{5.6}{112}{Linear-programming problems}{section.360}{}}
\@writefile{lof}{\contentsline {figure}{\numberline {5.12}{\ignorespaces Sequence diagram for the execution of the guided policy.\relax }}{113}{figure.caption.357}}
\newlabel{F:seq_energy}{{5.12}{113}{Sequence diagram for the execution of the guided policy.\relax }{figure.caption.357}{}}
\@writefile{lof}{\contentsline {figure}{\numberline {5.13}{\ignorespaces Sequence diagram for the execution of the performance-per-watt maximization policy.\relax }}{114}{figure.caption.359}}
\newlabel{F:seq_eff}{{5.13}{114}{Sequence diagram for the execution of the performance-per-watt maximization policy.\relax }{figure.caption.359}{}}
\citation{ref:hpl}
\@writefile{toc}{\contentsline {subsection}{\numberline {5.6.1}Energy-minimization policy}{115}{subsection.361}}
\@writefile{lof}{\contentsline {figure}{\numberline {5.14}{\ignorespaces Linear-programming problem used in the energy-minimization policy.\relax }}{115}{figure.caption.362}}
\newlabel{F:lpe}{{5.14}{115}{Linear-programming problem used in the energy-minimization policy.\relax }{figure.caption.362}{}}
\citation{Martin201560}
\@writefile{toc}{\contentsline {subsection}{\numberline {5.6.2}Performance-per-watt maximization policy}{116}{subsection.363}}
\@writefile{lof}{\contentsline {figure}{\numberline {5.15}{\ignorespaces Linear-programming problem used in the Performance-per-watt maximization policy.\relax }}{116}{figure.caption.364}}
\newlabel{F:lpe2}{{5.15}{116}{Linear-programming problem used in the Performance-per-watt maximization policy.\relax }{figure.caption.364}{}}
\@writefile{toc}{\contentsline {section}{\numberline {5.7}Summary}{116}{section.365}}
\newlabel{S:proposal_summary}{{5.7}{116}{Summary}{section.365}{}}
\@setckpt{proposal}{
\setcounter{page}{118}
\setcounter{equation}{0}
\setcounter{enumi}{8}
\setcounter{enumii}{0}
\setcounter{enumiii}{0}
\setcounter{enumiv}{0}
\setcounter{footnote}{3}
\setcounter{mpfootnote}{0}
\setcounter{part}{0}
\setcounter{chapter}{5}
\setcounter{section}{7}
\setcounter{subsection}{0}
\setcounter{subsubsection}{0}
\setcounter{paragraph}{0}
\setcounter{subparagraph}{0}
\setcounter{figure}{15}
\setcounter{table}{0}
\setcounter{parentequation}{0}
\setcounter{example}{0}
\setcounter{theorem}{0}
\setcounter{ContinuedFloat}{0}
\setcounter{subfigure}{0}
\setcounter{lofdepth}{1}
\setcounter{subtable}{0}
\setcounter{lotdepth}{1}
\setcounter{r@tfl@t}{1}
\setcounter{lstnumber}{1}
\setcounter{Item}{57}
\setcounter{Hfootnote}{15}
\setcounter{bookmark@seq@number}{82}
\setcounter{dummy}{2}
\setcounter{LT@tables}{0}
\setcounter{LT@chunks}{0}
\setcounter{lips@count}{0}
\setcounter{blindtext}{1}
\setcounter{Blindtext}{5}
\setcounter{blind@countparstart}{0}
\setcounter{blindlist}{0}
\setcounter{blindlistlevel}{0}
\setcounter{blindlist@level}{0}
\setcounter{blind@listcount}{0}
\setcounter{blind@levelcount}{0}
\setcounter{blind@randomcount}{0}
\setcounter{blind@randommax}{0}
\setcounter{blind@pangramcount}{0}
\setcounter{blind@pangrammax}{0}
\setcounter{@pps}{0}
\setcounter{@ppsavesec}{0}
\setcounter{@ppsaveapp}{0}
\setcounter{float@type}{16}
\setcounter{algorithm}{4}
\setcounter{ALC@unique}{92}
\setcounter{ALC@line}{46}
\setcounter{ALC@rem}{0}
\setcounter{ALC@depth}{0}
\setcounter{lstlisting}{0}
\setcounter{section@level}{1}
}
