\relax 
\providecommand\hyper@newdestlabel[2]{}
\citation{ref:planethpc}
\@writefile{toc}{\contentsline {chapter}{\numberline {2}State of the art}{9}{chapter.22}}
\@writefile{lof}{\addvspace {10\p@ }}
\@writefile{lot}{\addvspace {10\p@ }}
\newlabel{ch:state_art}{{2}{9}{State of the art}{chapter.22}{}}
\@writefile{toc}{\contentsline {section}{\numberline {2.1}High performance computing}{9}{section.23}}
\newlabel{S:hpc}{{2.1}{9}{High performance computing}{section.23}{}}
\citation{top500}
\citation{ref:hpl}
\citation{Berman:2003:GCM:861919}
\citation{citeulike:4214978}
\citation{Younis:1994:AZE:889439}
\@writefile{toc}{\contentsline {subsection}{\numberline {2.1.1}Energy in supercomputers}{10}{subsection.24}}
\newlabel{Ss:energy_hpc}{{2.1.1}{10}{Energy in supercomputers}{subsection.24}{}}
\citation{ref:green}
\citation{ref:green2}
\citation{ref:blue_gene}
\citation{Albers2010}
\citation{1559953}
\citation{6148200}
\citation{ref:petascale}
\citation{ref:exascale2}
\citation{ref:exascale5}
\citation{ref:exascale3}
\citation{ref:exascale6}
\citation{ref:exascale4}
\@writefile{toc}{\contentsline {section}{\numberline {2.2}Recent supercomputer challenges: exascale}{12}{section.25}}
\newlabel{S:exascale}{{2.2}{12}{Recent supercomputer challenges: exascale}{section.25}{}}
\@writefile{toc}{\contentsline {subsection}{\numberline {2.2.1}Adapting MPI to Exascale}{12}{subsection.26}}
\citation{mpi-exascale}
\citation{Gropp:2009:MEC:1612208.1612212}
\citation{ref:mpi_exascale}
\citation{Maghraoui07dynamicmalleability}
\citation{flexmpi}
\citation{Benedict13}
\citation{Mayes05}
\citation{VADHIYAR}
\@writefile{toc}{\contentsline {section}{\numberline {2.3}MPI: support for malleability}{13}{section.27}}
\citation{Huang04}
\citation{elmaghraoui-mpi-malleability-2007}
\citation{elmaghraoui-iosmpi-ppam-2005}
\citation{elmaghraoui-malleability-ccpe-2008}
\citation{4343851}
\citation{Sudarsan201048}
\@writefile{toc}{\contentsline {section}{\numberline {2.4}Recent work on malleability in MPI applications}{14}{section.28}}
\newlabel{S:MPI_malleability}{{2.4}{14}{Recent work on malleability in MPI applications}{section.28}{}}
\citation{malleabilityCOLIBRI}
\citation{cera}
\citation{Utrera:2004:IMM:1025127.1026010}
\citation{5598313}
\@writefile{toc}{\contentsline {section}{\numberline {2.5}Recent work on energy in parallel applications}{15}{section.32}}
\newlabel{S:recent_energy}{{2.5}{15}{Recent work on energy in parallel applications}{section.32}{}}
\citation{6969462}
\citation{6382827}
\citation{5348808}
\citation{Springer:2006:MET:1122971.1123006}
\citation{Lee:2009:MEC:1577849.1577891}
\citation{Tiwari:2011:AEU:2238436.2238460}
\citation{1419856}
\citation{ref:cabrera}
\citation{ref:nvml}
\citation{lang:an}
\citation{Springer:2006:MET:1122971.1123006}
\@writefile{toc}{\contentsline {subsection}{\numberline {2.5.1}RAPL}{17}{subsection.36}}
\citation{6337489}
\citation{6337489}
\@writefile{toc}{\contentsline {section}{\numberline {2.6}Summary}{18}{section.37}}
\newlabel{S:conclusion_s_o_a}{{2.6}{18}{Summary}{section.37}{}}
\citation{Carretero:2014}
\@setckpt{state_of_art}{
\setcounter{page}{20}
\setcounter{equation}{0}
\setcounter{enumi}{0}
\setcounter{enumii}{0}
\setcounter{enumiii}{0}
\setcounter{enumiv}{0}
\setcounter{footnote}{6}
\setcounter{mpfootnote}{0}
\setcounter{part}{0}
\setcounter{chapter}{2}
\setcounter{section}{6}
\setcounter{subsection}{0}
\setcounter{subsubsection}{0}
\setcounter{paragraph}{0}
\setcounter{subparagraph}{0}
\setcounter{figure}{0}
\setcounter{table}{0}
\setcounter{parentequation}{0}
\setcounter{example}{0}
\setcounter{theorem}{0}
\setcounter{ContinuedFloat}{0}
\setcounter{subfigure}{0}
\setcounter{lofdepth}{1}
\setcounter{subtable}{0}
\setcounter{lotdepth}{1}
\setcounter{r@tfl@t}{0}
\setcounter{lstnumber}{1}
\setcounter{Item}{0}
\setcounter{Hfootnote}{8}
\setcounter{bookmark@seq@number}{25}
\setcounter{dummy}{2}
\setcounter{LT@tables}{0}
\setcounter{LT@chunks}{0}
\setcounter{lips@count}{0}
\setcounter{blindtext}{1}
\setcounter{Blindtext}{5}
\setcounter{blind@countparstart}{0}
\setcounter{blindlist}{0}
\setcounter{blindlistlevel}{0}
\setcounter{blindlist@level}{0}
\setcounter{blind@listcount}{0}
\setcounter{blind@levelcount}{0}
\setcounter{blind@randomcount}{0}
\setcounter{blind@randommax}{0}
\setcounter{blind@pangramcount}{0}
\setcounter{blind@pangrammax}{0}
\setcounter{@pps}{0}
\setcounter{@ppsavesec}{0}
\setcounter{@ppsaveapp}{0}
\setcounter{float@type}{16}
\setcounter{algorithm}{0}
\setcounter{ALC@unique}{0}
\setcounter{ALC@line}{0}
\setcounter{ALC@rem}{0}
\setcounter{ALC@depth}{0}
\setcounter{lstlisting}{0}
\setcounter{section@level}{1}
}
