# Fdb version 3
["pdflatex"] 1433086201 "state_of_art.tex" "state_of_art.pdf" "state_of_art" 1433086201
  "/usr/local/texlive/2014/texmf-dist/fonts/map/fontname/texfonts.map" 1272929888 3287 e6b82fe08f5336d4d5ebc73fb1152e87 ""
  "/usr/local/texlive/2014/texmf-dist/fonts/tfm/public/cm/cmbx10.tfm" 1136768653 1328 c834bbb027764024c09d3d2bf908b5f0 ""
  "/usr/local/texlive/2014/texmf-dist/fonts/tfm/public/cm/cmti10.tfm" 1136768653 1480 aa8e34af0eb6a2941b776984cf1dfdc4 ""
  "/usr/local/texlive/2014/texmf-dist/web2c/texmf.cnf" 1398200874 31722 4f52421e59a4b9e910cf18e64c1f2b4a ""
  "/usr/local/texlive/2014/texmf-var/web2c/pdftex/pdflatex.fmt" 1424261559 3832012 bcb37de5dabedbe70ad04dd80f090c92 ""
  "/usr/local/texlive/2014/texmf.cnf" 1401025936 577 a59edbde8d3a8c549d0eeaab1739e2ff ""
  "state_of_art.aux" 1433081029 2122 5fe2ed34bc6d0a782a88a1222c264aeb ""
  "state_of_art.tex" 1433086201 8257 3ec94640bf31e95bc048529676fb1d43 ""
  (generated)
  "state_of_art.log"
  "state_of_art.pdf"
