\relax 
\providecommand\hyper@newdestlabel[2]{}
\providecommand\HyperFirstAtBeginDocument{\AtBeginDocument}
\HyperFirstAtBeginDocument{\ifx\hyper@anchor\@undefined
\global\let\oldcontentsline\contentsline
\gdef\contentsline#1#2#3#4{\oldcontentsline{#1}{#2}{#3}}
\global\let\oldnewlabel\newlabel
\gdef\newlabel#1#2{\newlabelxx{#1}#2}
\gdef\newlabelxx#1#2#3#4#5#6{\oldnewlabel{#1}{{#2}{#3}}}
\AtEndDocument{\ifx\hyper@anchor\@undefined
\let\contentsline\oldcontentsline
\let\newlabel\oldnewlabel
\fi}
\fi}
\global\let\hyper@last\relax 
\gdef\HyperFirstAtBeginDocument#1{#1}
\providecommand\HyField@AuxAddToFields[1]{}
\providecommand\HyField@AuxAddToCoFields[2]{}
\@input{portada.aux}
\providecommand \oddpage@label [2]{}
\select@language{british}
\@writefile{toc}{\select@language{british}}
\@writefile{lof}{\select@language{british}}
\@writefile{lot}{\select@language{british}}
\@input{evaluacion.aux}
\@input{quote.aux}
\@input{agradecimientos.aux}
\@input{resumen.aux}
\citation{ref:geenen}
\citation{flexmpi}
\citation{SDWSDEPR.BJJJ20000101}
\citation{flexmpi}
\citation{6148200}
\@writefile{toc}{\contentsline {chapter}{List of Figures}{xxiii}{dummy.8}}
\@writefile{toc}{\contentsline {chapter}{List of Tables}{xxv}{dummy.10}}
\@input{introduccion.aux}
\@input{state_of_art.aux}
\@input{development_framework.aux}
\@input{project_description.aux}
\@input{proposal.aux}
\@input{evaluation.aux}
\@input{conclusion.aux}
\@input{acronyms.aux}
\@input{installation_manual.aux}
\@input{user_developer_manual.aux}
\bibstyle{unsrt}
\bibdata{bibliografia}
\bibcite{ref:geenen}{1}
\bibcite{flexmpi}{2}
\bibcite{SDWSDEPR.BJJJ20000101}{3}
\bibcite{6148200}{4}
\bibcite{VanHeddeghem:2014:TWI:2657027.2657141}{5}
\bibcite{3234355}{6}
\bibcite{insidehpc}{7}
\bibcite{Google}{8}
\bibcite{balaji-igcc13-green500}{9}
\bibcite{ref:hipeac}{10}
\bibcite{citeulike:10817006}{11}
\@writefile{toc}{\contentsline {chapter}{Bibliography}{159}{dummy.484}}
\bibcite{ref:insidehpc3}{12}
\bibcite{ref:planethpc}{13}
\bibcite{top500}{14}
\bibcite{ref:hpl}{15}
\bibcite{Berman:2003:GCM:861919}{16}
\bibcite{citeulike:4214978}{17}
\bibcite{Younis:1994:AZE:889439}{18}
\bibcite{ref:green}{19}
\bibcite{ref:green2}{20}
\bibcite{ref:blue_gene}{21}
\bibcite{Albers2010}{22}
\bibcite{1559953}{23}
\bibcite{ref:petascale}{24}
\bibcite{ref:exascale2}{25}
\bibcite{ref:exascale5}{26}
\bibcite{ref:exascale3}{27}
\bibcite{ref:exascale6}{28}
\bibcite{ref:exascale4}{29}
\bibcite{mpi-exascale}{30}
\bibcite{Gropp:2009:MEC:1612208.1612212}{31}
\bibcite{ref:mpi_exascale}{32}
\bibcite{Maghraoui07dynamicmalleability}{33}
\bibcite{Benedict13}{34}
\bibcite{Mayes05}{35}
\bibcite{VADHIYAR}{36}
\bibcite{Huang04}{37}
\bibcite{elmaghraoui-mpi-malleability-2007}{38}
\bibcite{elmaghraoui-iosmpi-ppam-2005}{39}
\bibcite{elmaghraoui-malleability-ccpe-2008}{40}
\bibcite{4343851}{41}
\bibcite{Sudarsan201048}{42}
\bibcite{malleabilityCOLIBRI}{43}
\bibcite{cera}{44}
\bibcite{Utrera:2004:IMM:1025127.1026010}{45}
\bibcite{5598313}{46}
\bibcite{6969462}{47}
\bibcite{6382827}{48}
\bibcite{5348808}{49}
\bibcite{Springer:2006:MET:1122971.1123006}{50}
\bibcite{Lee:2009:MEC:1577849.1577891}{51}
\bibcite{Tiwari:2011:AEU:2238436.2238460}{52}
\bibcite{1419856}{53}
\bibcite{ref:cabrera}{54}
\bibcite{ref:nvml}{55}
\bibcite{lang:an}{56}
\bibcite{6337489}{57}
\bibcite{Carretero:2014}{58}
\bibcite{openmp}{59}
\bibcite{mpi}{60}
\bibcite{reinders2007intel}{61}
\bibcite{butenhof1997programming}{62}
\bibcite{4912964}{63}
\bibcite{Jost_comparingthe}{64}
\bibcite{mpi_2}{65}
\bibcite{mpi_versions}{66}
\bibcite{openmpi}{67}
\bibcite{openmpi_license}{68}
\bibcite{mpiorg}{69}
\bibcite{argonne}{70}
\bibcite{mpipro}{71}
\bibcite{sapcmpi}{72}
\bibcite{mvapich}{73}
\bibcite{intelmpi}{74}
\bibcite{ibmmpi}{75}
\bibcite{Balaji:2010:PSP:1894122.1894127}{76}
\bibcite{energy_2}{77}
\bibcite{energy_1}{78}
\bibcite{5453824}{79}
\bibcite{ref:powerpack}{80}
\bibcite{igprof}{81}
\bibcite{khanenergy}{82}
\bibcite{Jette02slurm:simple}{83}
\bibcite{slurm_energy}{84}
\bibcite{ref:rapl_manual}{85}
\bibcite{weaver2012measuring}{86}
\bibcite{ref:papi_rapl}{87}
\bibcite{hydra}{88}
\bibcite{hyperth}{89}
\bibcite{linear_op}{90}
\bibcite{mpinternals}{91}
\bibcite{communicator}{92}
\bibcite{papi}{93}
\bibcite{ref:papi_user_guide}{94}
\bibcite{ref:papi_mpi}{95}
\bibcite{ref:msr_man}{96}
\bibcite{ref:glpk}{97}
\bibcite{sublimetext}{98}
\bibcite{slurm}{99}
\bibcite{yed}{100}
\bibcite{egypt}{101}
\bibcite{gprof}{102}
\bibcite{ref:sockperf}{103}
\bibcite{ref:graphviz}{104}
\bibcite{ieee1994ieee}{105}
\bibcite{ref:papi_timers}{106}
\bibcite{ref:cores}{107}
\bibcite{ref:BOE}{108}
\bibcite{Boehm:1986:SMS:12944.12948}{109}
\bibcite{ref:contr}{110}
\bibcite{ref:sociedades}{111}
\bibcite{ref:tarifa_luz}{112}
\bibcite{ref:seg_soc}{113}
\bibcite{Mucci99papi:a}{114}
\bibcite{4021918}{115}
\bibcite{6650976}{116}
\bibcite{Barroso:2005:PP:1095408.1095420}{117}
\bibcite{ref:cnet}{118}
\bibcite{ref:per_what}{119}
\bibcite{Mavridis2012YCoCg}{120}
\bibcite{6557170}{121}
\bibcite{Dantzig98a}{122}
\bibcite{Martin201560}{123}
\bibcite{Hockney:1994}{124}
\bibcite{ref:hockney_1}{125}
\bibcite{ref:hockney_3}{126}
\bibcite{ref:hockney_2}{127}
\bibcite{turboboost}{128}
\bibcite{5306782}{129}
\bibcite{ref:matlab}{130}
\bibcite{ref:sparse}{131}
\bibcite{ref:mpich_inst}{132}
\bibcite{rapl_2}{133}
