\relax 
\@writefile{toc}{\contentsline {chapter}{\numberline {6.}Unit Tests}{16}}
\@writefile{lof}{\addvspace {10pt}}
\@writefile{lot}{\addvspace {10pt}}
\@writefile{toc}{\contentsline {section}{\numberline {6.1}Helgrind Tests}{16}}
\newlabel{tab:helg1}{{\caption@xref {tab:helg1}{ on input line 7}}{16}}
\@writefile{lot}{\contentsline {table}{\numberline {6.1}{\ignorespaces helg\_test\_1\relax }}{16}}
\newlabel{tab:helg2}{{\caption@xref {tab:helg2}{ on input line 21}}{17}}
\@writefile{lot}{\contentsline {table}{\numberline {6.2}{\ignorespaces helg\_test\_2\relax }}{17}}
\newlabel{tab:helg3}{{\caption@xref {tab:helg3}{ on input line 35}}{17}}
\@writefile{lot}{\contentsline {table}{\numberline {6.3}{\ignorespaces helg\_test\_3\relax }}{17}}
\newlabel{tab:helg4}{{\caption@xref {tab:helg4}{ on input line 53}}{17}}
\@writefile{lot}{\contentsline {table}{\numberline {6.4}{\ignorespaces helg\_test\_4\relax }}{17}}
\newlabel{tab:helg5}{{\caption@xref {tab:helg5}{ on input line 67}}{17}}
\@writefile{lot}{\contentsline {table}{\numberline {6.5}{\ignorespaces helg\_test\_5\relax }}{17}}
\newlabel{tab:helg6}{{\caption@xref {tab:helg6}{ on input line 81}}{17}}
\@writefile{lot}{\contentsline {table}{\numberline {6.6}{\ignorespaces helg\_test\_6\relax }}{17}}
\newlabel{tab:helg7}{{\caption@xref {tab:helg7}{ on input line 95}}{18}}
\@writefile{lot}{\contentsline {table}{\numberline {6.7}{\ignorespaces helg\_test\_7\relax }}{18}}
\newlabel{tab:helg8}{{\caption@xref {tab:helg8}{ on input line 109}}{18}}
\@writefile{lot}{\contentsline {table}{\numberline {6.8}{\ignorespaces helg\_test\_8\relax }}{18}}
\newlabel{tab:helg9}{{\caption@xref {tab:helg9}{ on input line 123}}{18}}
\@writefile{lot}{\contentsline {table}{\numberline {6.9}{\ignorespaces helg\_test\_9\relax }}{18}}
\newlabel{tab:helg10}{{\caption@xref {tab:helg10}{ on input line 137}}{18}}
\@writefile{lot}{\contentsline {table}{\numberline {6.10}{\ignorespaces helg\_test\_10\relax }}{18}}
\newlabel{tab:helg11}{{\caption@xref {tab:helg11}{ on input line 151}}{18}}
\@writefile{lot}{\contentsline {table}{\numberline {6.11}{\ignorespaces helg\_test\_11\relax }}{18}}
\newlabel{tab:helg12}{{\caption@xref {tab:helg12}{ on input line 165}}{18}}
\@writefile{lot}{\contentsline {table}{\numberline {6.12}{\ignorespaces helg\_test\_12\relax }}{18}}
\newlabel{tab:helg13}{{\caption@xref {tab:helg13}{ on input line 179}}{19}}
\@writefile{lot}{\contentsline {table}{\numberline {6.13}{\ignorespaces helg\_test\_13\relax }}{19}}
\newlabel{tab:helg14}{{\caption@xref {tab:helg14}{ on input line 193}}{19}}
\@writefile{lot}{\contentsline {table}{\numberline {6.14}{\ignorespaces helg\_test\_14\relax }}{19}}
\newlabel{tab:helg15}{{\caption@xref {tab:helg15}{ on input line 208}}{19}}
\@writefile{lot}{\contentsline {table}{\numberline {6.15}{\ignorespaces helg\_test\_15\relax }}{19}}
\newlabel{tab:helg16}{{\caption@xref {tab:helg16}{ on input line 222}}{19}}
\@writefile{lot}{\contentsline {table}{\numberline {6.16}{\ignorespaces helg\_test\_16\relax }}{19}}
\newlabel{tab:helg17}{{\caption@xref {tab:helg17}{ on input line 236}}{19}}
\@writefile{lot}{\contentsline {table}{\numberline {6.17}{\ignorespaces helg\_test\_17\relax }}{19}}
\newlabel{tab:helg18}{{\caption@xref {tab:helg18}{ on input line 250}}{19}}
\@writefile{lot}{\contentsline {table}{\numberline {6.18}{\ignorespaces helg\_test\_18\relax }}{19}}
\newlabel{tab:helg19}{{\caption@xref {tab:helg19}{ on input line 264}}{20}}
\@writefile{lot}{\contentsline {table}{\numberline {6.19}{\ignorespaces helg\_test\_19\relax }}{20}}
\newlabel{tab:helg20}{{\caption@xref {tab:helg20}{ on input line 278}}{20}}
\@writefile{lot}{\contentsline {table}{\numberline {6.20}{\ignorespaces helg\_test\_20\relax }}{20}}
\newlabel{tab:helg21}{{\caption@xref {tab:helg21}{ on input line 292}}{20}}
\@writefile{lot}{\contentsline {table}{\numberline {6.21}{\ignorespaces helg\_test\_21\relax }}{20}}
\newlabel{tab:helg22}{{\caption@xref {tab:helg22}{ on input line 306}}{20}}
\@writefile{lot}{\contentsline {table}{\numberline {6.22}{\ignorespaces helg\_test\_22\relax }}{20}}
\newlabel{tab:helg23}{{\caption@xref {tab:helg23}{ on input line 320}}{20}}
\@writefile{lot}{\contentsline {table}{\numberline {6.23}{\ignorespaces helg\_test\_23\relax }}{20}}
\newlabel{tab:helg24}{{\caption@xref {tab:helg24}{ on input line 335}}{20}}
\@writefile{lot}{\contentsline {table}{\numberline {6.24}{\ignorespaces helg\_test\_24\relax }}{20}}
\newlabel{tab:helg25}{{\caption@xref {tab:helg25}{ on input line 349}}{21}}
\@writefile{lot}{\contentsline {table}{\numberline {6.25}{\ignorespaces helg\_test\_25\relax }}{21}}
\newlabel{tab:helg26}{{\caption@xref {tab:helg26}{ on input line 363}}{21}}
\@writefile{lot}{\contentsline {table}{\numberline {6.26}{\ignorespaces helg\_test\_26\relax }}{21}}
\newlabel{tab:helg27}{{\caption@xref {tab:helg27}{ on input line 377}}{21}}
\@writefile{lot}{\contentsline {table}{\numberline {6.27}{\ignorespaces helg\_test\_27\relax }}{21}}
\newlabel{tab:helg28}{{\caption@xref {tab:helg28}{ on input line 392}}{21}}
\@writefile{lot}{\contentsline {table}{\numberline {6.28}{\ignorespaces helg\_test\_28\relax }}{21}}
\newlabel{tab:helg29}{{\caption@xref {tab:helg29}{ on input line 407}}{21}}
\@writefile{lot}{\contentsline {table}{\numberline {6.29}{\ignorespaces helg\_test\_29\relax }}{21}}
\newlabel{tab:helg30}{{\caption@xref {tab:helg30}{ on input line 421}}{21}}
\@writefile{lot}{\contentsline {table}{\numberline {6.30}{\ignorespaces helg\_test\_30\relax }}{21}}
\newlabel{tab:helg31}{{\caption@xref {tab:helg31}{ on input line 435}}{22}}
\@writefile{lot}{\contentsline {table}{\numberline {6.31}{\ignorespaces helg\_test\_31\relax }}{22}}
\newlabel{tab:helg32}{{\caption@xref {tab:helg32}{ on input line 449}}{22}}
\@writefile{lot}{\contentsline {table}{\numberline {6.32}{\ignorespaces helg\_test\_32\relax }}{22}}
\newlabel{tab:helg33}{{\caption@xref {tab:helg33}{ on input line 463}}{22}}
\@writefile{lot}{\contentsline {table}{\numberline {6.33}{\ignorespaces helg\_test\_33\relax }}{22}}
\newlabel{tab:helg34}{{\caption@xref {tab:helg34}{ on input line 477}}{22}}
\@writefile{lot}{\contentsline {table}{\numberline {6.34}{\ignorespaces helg\_test\_34\relax }}{22}}
\newlabel{tab:helg35}{{\caption@xref {tab:helg35}{ on input line 491}}{22}}
\@writefile{lot}{\contentsline {table}{\numberline {6.35}{\ignorespaces helg\_test\_35\relax }}{22}}
\newlabel{tab:helg36}{{\caption@xref {tab:helg36}{ on input line 505}}{22}}
\@writefile{lot}{\contentsline {table}{\numberline {6.36}{\ignorespaces helg\_test\_36\relax }}{22}}
\newlabel{tab:helg37}{{\caption@xref {tab:helg37}{ on input line 519}}{23}}
\@writefile{lot}{\contentsline {table}{\numberline {6.37}{\ignorespaces helg\_test\_37\relax }}{23}}
\newlabel{tab:helg38}{{\caption@xref {tab:helg38}{ on input line 534}}{23}}
\@writefile{lot}{\contentsline {table}{\numberline {6.38}{\ignorespaces helg\_test\_38\relax }}{23}}
\newlabel{tab:helg39}{{\caption@xref {tab:helg39}{ on input line 548}}{23}}
\@writefile{lot}{\contentsline {table}{\numberline {6.39}{\ignorespaces helg\_test\_39\relax }}{23}}
\newlabel{tab:helg40}{{\caption@xref {tab:helg40}{ on input line 573}}{23}}
\@writefile{lot}{\contentsline {table}{\numberline {6.40}{\ignorespaces helg\_test\_40\relax }}{23}}
\newlabel{tab:helg41}{{\caption@xref {tab:helg41}{ on input line 587}}{24}}
\@writefile{lot}{\contentsline {table}{\numberline {6.41}{\ignorespaces helg\_test\_41\relax }}{24}}
\newlabel{tab:helg42}{{\caption@xref {tab:helg42}{ on input line 601}}{24}}
\@writefile{lot}{\contentsline {table}{\numberline {6.42}{\ignorespaces helg\_test\_42\relax }}{24}}
\newlabel{tab:helg43}{{\caption@xref {tab:helg43}{ on input line 618}}{24}}
\@writefile{lot}{\contentsline {table}{\numberline {6.43}{\ignorespaces helg\_test\_43\relax }}{24}}
\newlabel{tab:helg44}{{\caption@xref {tab:helg44}{ on input line 632}}{24}}
\@writefile{lot}{\contentsline {table}{\numberline {6.44}{\ignorespaces helg\_test\_44\relax }}{24}}
\@writefile{toc}{\contentsline {section}{\numberline {6.2}DRD Tests}{25}}
\newlabel{tab:drd1}{{\caption@xref {tab:drd1}{ on input line 651}}{25}}
\@writefile{lot}{\contentsline {table}{\numberline {6.45}{\ignorespaces drd\_test\_1\relax }}{25}}
\newlabel{tab:drd2}{{\caption@xref {tab:drd2}{ on input line 665}}{26}}
\@writefile{lot}{\contentsline {table}{\numberline {6.46}{\ignorespaces drd\_test\_2\relax }}{26}}
\newlabel{tab:drd3}{{\caption@xref {tab:drd3}{ on input line 679}}{26}}
\@writefile{lot}{\contentsline {table}{\numberline {6.47}{\ignorespaces drd\_test\_3\relax }}{26}}
\newlabel{tab:drd4}{{\caption@xref {tab:drd4}{ on input line 693}}{26}}
\@writefile{lot}{\contentsline {table}{\numberline {6.48}{\ignorespaces drd\_test\_4\relax }}{26}}
\newlabel{tab:drd5}{{\caption@xref {tab:drd5}{ on input line 707}}{26}}
\@writefile{lot}{\contentsline {table}{\numberline {6.49}{\ignorespaces drd\_test\_5\relax }}{26}}
\newlabel{tab:drd6}{{\caption@xref {tab:drd6}{ on input line 721}}{26}}
\@writefile{lot}{\contentsline {table}{\numberline {6.50}{\ignorespaces drd\_test\_6\relax }}{26}}
\newlabel{tab:drd7}{{\caption@xref {tab:drd7}{ on input line 735}}{26}}
\@writefile{lot}{\contentsline {table}{\numberline {6.51}{\ignorespaces drd\_test\_7\relax }}{26}}
\newlabel{tab:drd8}{{\caption@xref {tab:drd8}{ on input line 749}}{27}}
\@writefile{lot}{\contentsline {table}{\numberline {6.52}{\ignorespaces drd\_test\_8\relax }}{27}}
\newlabel{tab:drd9}{{\caption@xref {tab:drd9}{ on input line 763}}{27}}
\@writefile{lot}{\contentsline {table}{\numberline {6.53}{\ignorespaces drd\_test\_9\relax }}{27}}
\newlabel{tab:drd10}{{\caption@xref {tab:drd10}{ on input line 777}}{27}}
\@writefile{lot}{\contentsline {table}{\numberline {6.54}{\ignorespaces drd\_test\_10\relax }}{27}}
\newlabel{tab:drd11}{{\caption@xref {tab:drd11}{ on input line 791}}{27}}
\@writefile{lot}{\contentsline {table}{\numberline {6.55}{\ignorespaces drd\_test\_11\relax }}{27}}
\newlabel{tab:drd12}{{\caption@xref {tab:drd12}{ on input line 805}}{27}}
\@writefile{lot}{\contentsline {table}{\numberline {6.56}{\ignorespaces drd\_test\_12\relax }}{27}}
\newlabel{tab:drd13}{{\caption@xref {tab:drd13}{ on input line 819}}{27}}
\@writefile{lot}{\contentsline {table}{\numberline {6.57}{\ignorespaces drd\_test\_13\relax }}{27}}
\newlabel{tab:drd14}{{\caption@xref {tab:drd14}{ on input line 833}}{28}}
\@writefile{lot}{\contentsline {table}{\numberline {6.58}{\ignorespaces drd\_test\_14\relax }}{28}}
\newlabel{tab:drd15}{{\caption@xref {tab:drd15}{ on input line 847}}{28}}
\@writefile{lot}{\contentsline {table}{\numberline {6.59}{\ignorespaces drd\_test\_15\relax }}{28}}
\newlabel{tab:drd16}{{\caption@xref {tab:drd16}{ on input line 861}}{28}}
\@writefile{lot}{\contentsline {table}{\numberline {6.60}{\ignorespaces drd\_test\_16\relax }}{28}}
\newlabel{tab:drd17}{{\caption@xref {tab:drd17}{ on input line 875}}{28}}
\@writefile{lot}{\contentsline {table}{\numberline {6.61}{\ignorespaces drd\_test\_17\relax }}{28}}
\newlabel{tab:drd18}{{\caption@xref {tab:drd18}{ on input line 889}}{28}}
\@writefile{lot}{\contentsline {table}{\numberline {6.62}{\ignorespaces drd\_test\_18\relax }}{28}}
\newlabel{tab:drd19}{{\caption@xref {tab:drd19}{ on input line 903}}{28}}
\@writefile{lot}{\contentsline {table}{\numberline {6.63}{\ignorespaces drd\_test\_19\relax }}{28}}
\newlabel{tab:drd20}{{\caption@xref {tab:drd20}{ on input line 917}}{29}}
\@writefile{lot}{\contentsline {table}{\numberline {6.64}{\ignorespaces drd\_test\_20\relax }}{29}}
\newlabel{tab:drd21}{{\caption@xref {tab:drd21}{ on input line 931}}{29}}
\@writefile{lot}{\contentsline {table}{\numberline {6.65}{\ignorespaces drd\_test\_21\relax }}{29}}
\newlabel{tab:drd22}{{\caption@xref {tab:drd22}{ on input line 945}}{29}}
\@writefile{lot}{\contentsline {table}{\numberline {6.66}{\ignorespaces drd\_test\_22\relax }}{29}}
\newlabel{tab:drd23}{{\caption@xref {tab:drd23}{ on input line 959}}{29}}
\@writefile{lot}{\contentsline {table}{\numberline {6.67}{\ignorespaces drd\_test\_23\relax }}{29}}
\newlabel{tab:drd24}{{\caption@xref {tab:drd24}{ on input line 973}}{29}}
\@writefile{lot}{\contentsline {table}{\numberline {6.68}{\ignorespaces drd\_test\_24\relax }}{29}}
\newlabel{tab:drd25}{{\caption@xref {tab:drd25}{ on input line 987}}{29}}
\@writefile{lot}{\contentsline {table}{\numberline {6.69}{\ignorespaces drd\_test\_25\relax }}{29}}
\newlabel{tab:drd26}{{\caption@xref {tab:drd26}{ on input line 1001}}{30}}
\@writefile{lot}{\contentsline {table}{\numberline {6.70}{\ignorespaces drd\_test\_26\relax }}{30}}
\newlabel{tab:drd27}{{\caption@xref {tab:drd27}{ on input line 1015}}{30}}
\@writefile{lot}{\contentsline {table}{\numberline {6.71}{\ignorespaces drd\_test\_27\relax }}{30}}
\newlabel{tab:drd28}{{\caption@xref {tab:drd28}{ on input line 1029}}{30}}
\@writefile{lot}{\contentsline {table}{\numberline {6.72}{\ignorespaces drd\_test\_28\relax }}{30}}
\newlabel{tab:drd29}{{\caption@xref {tab:drd29}{ on input line 1043}}{30}}
\@writefile{lot}{\contentsline {table}{\numberline {6.73}{\ignorespaces drd\_test\_29\relax }}{30}}
\newlabel{tab:drd30}{{\caption@xref {tab:drd30}{ on input line 1057}}{30}}
\@writefile{lot}{\contentsline {table}{\numberline {6.74}{\ignorespaces drd\_test\_30\relax }}{30}}
\newlabel{tab:drd31}{{\caption@xref {tab:drd31}{ on input line 1071}}{30}}
\@writefile{lot}{\contentsline {table}{\numberline {6.75}{\ignorespaces drd\_test\_31\relax }}{30}}
\newlabel{tab:drd32}{{\caption@xref {tab:drd32}{ on input line 1085}}{31}}
\@writefile{lot}{\contentsline {table}{\numberline {6.76}{\ignorespaces drd\_test\_32\relax }}{31}}
\newlabel{tab:drd33}{{\caption@xref {tab:drd33}{ on input line 1099}}{31}}
\@writefile{lot}{\contentsline {table}{\numberline {6.77}{\ignorespaces drd\_test\_33\relax }}{31}}
\newlabel{tab:drd34}{{\caption@xref {tab:drd34}{ on input line 1113}}{31}}
\@writefile{lot}{\contentsline {table}{\numberline {6.78}{\ignorespaces drd\_test\_34\relax }}{31}}
\newlabel{tab:drd35}{{\caption@xref {tab:drd35}{ on input line 1127}}{31}}
\@writefile{lot}{\contentsline {table}{\numberline {6.79}{\ignorespaces drd\_test\_35\relax }}{31}}
\newlabel{tab:drd36}{{\caption@xref {tab:drd36}{ on input line 1141}}{31}}
\@writefile{lot}{\contentsline {table}{\numberline {6.80}{\ignorespaces drd\_test\_36\relax }}{31}}
\newlabel{tab:drd37}{{\caption@xref {tab:drd37}{ on input line 1155}}{31}}
\@writefile{lot}{\contentsline {table}{\numberline {6.81}{\ignorespaces drd\_test\_37\relax }}{31}}
\newlabel{tab:drd38}{{\caption@xref {tab:drd38}{ on input line 1169}}{32}}
\@writefile{lot}{\contentsline {table}{\numberline {6.82}{\ignorespaces drd\_test\_38\relax }}{32}}
\newlabel{tab:drd39}{{\caption@xref {tab:drd39}{ on input line 1183}}{32}}
\@writefile{lot}{\contentsline {table}{\numberline {6.83}{\ignorespaces drd\_test\_39\relax }}{32}}
\newlabel{tab:drd40}{{\caption@xref {tab:drd40}{ on input line 1197}}{32}}
\@writefile{lot}{\contentsline {table}{\numberline {6.84}{\ignorespaces drd\_test\_40\relax }}{32}}
\newlabel{tab:drd41}{{\caption@xref {tab:drd41}{ on input line 1211}}{32}}
\@writefile{lot}{\contentsline {table}{\numberline {6.85}{\ignorespaces drd\_test\_41\relax }}{32}}
\newlabel{tab:drd42}{{\caption@xref {tab:drd42}{ on input line 1225}}{32}}
\@writefile{lot}{\contentsline {table}{\numberline {6.86}{\ignorespaces drd\_test\_42\relax }}{32}}
\newlabel{tab:drd43}{{\caption@xref {tab:drd43}{ on input line 1239}}{32}}
\@writefile{lot}{\contentsline {table}{\numberline {6.87}{\ignorespaces drd\_test\_43\relax }}{32}}
\newlabel{tab:drd44}{{\caption@xref {tab:drd44}{ on input line 1253}}{33}}
\@writefile{lot}{\contentsline {table}{\numberline {6.88}{\ignorespaces drd\_test\_44\relax }}{33}}
\newlabel{tab:drd45}{{\caption@xref {tab:drd45}{ on input line 1267}}{33}}
\@writefile{lot}{\contentsline {table}{\numberline {6.89}{\ignorespaces drd\_test\_45\relax }}{33}}
\newlabel{tab:drd46}{{\caption@xref {tab:drd46}{ on input line 1281}}{33}}
\@writefile{lot}{\contentsline {table}{\numberline {6.90}{\ignorespaces drd\_test\_46\relax }}{33}}
\newlabel{tab:drd47}{{\caption@xref {tab:drd47}{ on input line 1295}}{33}}
\@writefile{lot}{\contentsline {table}{\numberline {6.91}{\ignorespaces drd\_test\_47\relax }}{33}}
\newlabel{tab:drd48}{{\caption@xref {tab:drd48}{ on input line 1309}}{33}}
\@writefile{lot}{\contentsline {table}{\numberline {6.92}{\ignorespaces drd\_test\_48\relax }}{33}}
\newlabel{tab:drd49}{{\caption@xref {tab:drd49}{ on input line 1323}}{33}}
\@writefile{lot}{\contentsline {table}{\numberline {6.93}{\ignorespaces drd\_test\_49\relax }}{33}}
\newlabel{tab:drd50}{{\caption@xref {tab:drd50}{ on input line 1337}}{34}}
\@writefile{lot}{\contentsline {table}{\numberline {6.94}{\ignorespaces drd\_test\_50\relax }}{34}}
\newlabel{tab:drd51}{{\caption@xref {tab:drd51}{ on input line 1351}}{34}}
\@writefile{lot}{\contentsline {table}{\numberline {6.95}{\ignorespaces drd\_test\_51\relax }}{34}}
\newlabel{tab:drd52}{{\caption@xref {tab:drd52}{ on input line 1365}}{34}}
\@writefile{lot}{\contentsline {table}{\numberline {6.96}{\ignorespaces drd\_test\_52\relax }}{34}}
\newlabel{tab:drd53}{{\caption@xref {tab:drd53}{ on input line 1379}}{34}}
\@writefile{lot}{\contentsline {table}{\numberline {6.97}{\ignorespaces drd\_test\_53\relax }}{34}}
\newlabel{tab:drd54}{{\caption@xref {tab:drd54}{ on input line 1393}}{34}}
\@writefile{lot}{\contentsline {table}{\numberline {6.98}{\ignorespaces drd\_test\_54\relax }}{34}}
\newlabel{tab:drd55}{{\caption@xref {tab:drd55}{ on input line 1407}}{34}}
\@writefile{lot}{\contentsline {table}{\numberline {6.99}{\ignorespaces drd\_test\_55\relax }}{34}}
\newlabel{tab:drd56}{{\caption@xref {tab:drd56}{ on input line 1421}}{35}}
\@writefile{lot}{\contentsline {table}{\numberline {6.100}{\ignorespaces drd\_test\_56\relax }}{35}}
\newlabel{tab:drd57}{{\caption@xref {tab:drd57}{ on input line 1435}}{35}}
\@writefile{lot}{\contentsline {table}{\numberline {6.101}{\ignorespaces drd\_test\_57\relax }}{35}}
\newlabel{tab:drd58}{{\caption@xref {tab:drd58}{ on input line 1449}}{35}}
\@writefile{lot}{\contentsline {table}{\numberline {6.102}{\ignorespaces drd\_test\_58\relax }}{35}}
\newlabel{tab:drd59}{{\caption@xref {tab:drd59}{ on input line 1463}}{35}}
\@writefile{lot}{\contentsline {table}{\numberline {6.103}{\ignorespaces drd\_test\_59\relax }}{35}}
\newlabel{tab:drd60}{{\caption@xref {tab:drd60}{ on input line 1477}}{35}}
\@writefile{lot}{\contentsline {table}{\numberline {6.104}{\ignorespaces drd\_test\_60\relax }}{35}}
\newlabel{tab:drd61}{{\caption@xref {tab:drd61}{ on input line 1491}}{35}}
\@writefile{lot}{\contentsline {table}{\numberline {6.105}{\ignorespaces drd\_test\_61\relax }}{35}}
\newlabel{tab:drd62}{{\caption@xref {tab:drd62}{ on input line 1505}}{36}}
\@writefile{lot}{\contentsline {table}{\numberline {6.106}{\ignorespaces drd\_test\_62\relax }}{36}}
\newlabel{tab:drd63}{{\caption@xref {tab:drd63}{ on input line 1519}}{36}}
\@writefile{lot}{\contentsline {table}{\numberline {6.107}{\ignorespaces drd\_test\_1\relax }}{36}}
\newlabel{tab:drd64}{{\caption@xref {tab:drd64}{ on input line 1533}}{36}}
\@writefile{lot}{\contentsline {table}{\numberline {6.108}{\ignorespaces drd\_test\_64\relax }}{36}}
\newlabel{tab:drd65}{{\caption@xref {tab:drd65}{ on input line 1547}}{36}}
\@writefile{lot}{\contentsline {table}{\numberline {6.109}{\ignorespaces drd\_test\_65\relax }}{36}}
\newlabel{tab:drd66}{{\caption@xref {tab:drd66}{ on input line 1561}}{36}}
\@writefile{lot}{\contentsline {table}{\numberline {6.110}{\ignorespaces drd\_test\_1\relax }}{36}}
\newlabel{tab:drd67}{{\caption@xref {tab:drd67}{ on input line 1575}}{36}}
\@writefile{lot}{\contentsline {table}{\numberline {6.111}{\ignorespaces drd\_test\_67\relax }}{36}}
\newlabel{tab:drd68}{{\caption@xref {tab:drd68}{ on input line 1589}}{37}}
\@writefile{lot}{\contentsline {table}{\numberline {6.112}{\ignorespaces drd\_test\_68\relax }}{37}}
\newlabel{tab:drd69}{{\caption@xref {tab:drd69}{ on input line 1603}}{37}}
\@writefile{lot}{\contentsline {table}{\numberline {6.113}{\ignorespaces drd\_test\_69\relax }}{37}}
\newlabel{tab:drd70}{{\caption@xref {tab:drd70}{ on input line 1617}}{37}}
\@writefile{lot}{\contentsline {table}{\numberline {6.114}{\ignorespaces drd\_test\_70\relax }}{37}}
\newlabel{tab:drd71}{{\caption@xref {tab:drd71}{ on input line 1631}}{37}}
\@writefile{lot}{\contentsline {table}{\numberline {6.115}{\ignorespaces drd\_test\_71\relax }}{37}}
\newlabel{tab:drd72}{{\caption@xref {tab:drd72}{ on input line 1645}}{37}}
\@writefile{lot}{\contentsline {table}{\numberline {6.116}{\ignorespaces drd\_test\_72\relax }}{37}}
\newlabel{tab:drd73}{{\caption@xref {tab:drd73}{ on input line 1659}}{37}}
\@writefile{lot}{\contentsline {table}{\numberline {6.117}{\ignorespaces drd\_test\_73\relax }}{37}}
\newlabel{tab:drd74}{{\caption@xref {tab:drd74}{ on input line 1673}}{38}}
\@writefile{lot}{\contentsline {table}{\numberline {6.118}{\ignorespaces drd\_test\_74\relax }}{38}}
\newlabel{tab:drd75}{{\caption@xref {tab:drd75}{ on input line 1687}}{38}}
\@writefile{lot}{\contentsline {table}{\numberline {6.119}{\ignorespaces drd\_test\_75\relax }}{38}}
\newlabel{tab:drd76}{{\caption@xref {tab:drd76}{ on input line 1701}}{38}}
\@writefile{lot}{\contentsline {table}{\numberline {6.120}{\ignorespaces drd\_test\_76\relax }}{38}}
\newlabel{tab:drd77}{{\caption@xref {tab:drd77}{ on input line 1715}}{38}}
\@writefile{lot}{\contentsline {table}{\numberline {6.121}{\ignorespaces drd\_test\_77\relax }}{38}}
\newlabel{tab:drd78}{{\caption@xref {tab:drd78}{ on input line 1729}}{38}}
\@writefile{lot}{\contentsline {table}{\numberline {6.122}{\ignorespaces drd\_test\_78\relax }}{38}}
\newlabel{tab:drd79}{{\caption@xref {tab:drd79}{ on input line 1743}}{38}}
\@writefile{lot}{\contentsline {table}{\numberline {6.123}{\ignorespaces drd\_test\_79\relax }}{38}}
\newlabel{tab:drd80}{{\caption@xref {tab:drd80}{ on input line 1757}}{39}}
\@writefile{lot}{\contentsline {table}{\numberline {6.124}{\ignorespaces drd\_test\_80\relax }}{39}}
\newlabel{tab:drd81}{{\caption@xref {tab:drd81}{ on input line 1771}}{39}}
\@writefile{lot}{\contentsline {table}{\numberline {6.125}{\ignorespaces drd\_test\_81\relax }}{39}}
\newlabel{tab:drd82}{{\caption@xref {tab:drd82}{ on input line 1785}}{39}}
\@writefile{lot}{\contentsline {table}{\numberline {6.126}{\ignorespaces drd\_test\_82\relax }}{39}}
\newlabel{tab:drd83}{{\caption@xref {tab:drd83}{ on input line 1799}}{39}}
\@writefile{lot}{\contentsline {table}{\numberline {6.127}{\ignorespaces drd\_test\_83\relax }}{39}}
\newlabel{tab:drd84}{{\caption@xref {tab:drd84}{ on input line 1813}}{39}}
\@writefile{lot}{\contentsline {table}{\numberline {6.128}{\ignorespaces drd\_test\_84\relax }}{39}}
\newlabel{tab:drd85}{{\caption@xref {tab:drd85}{ on input line 1827}}{39}}
\@writefile{lot}{\contentsline {table}{\numberline {6.129}{\ignorespaces drd\_test\_85\relax }}{39}}
\newlabel{tab:drd86}{{\caption@xref {tab:drd86}{ on input line 1841}}{40}}
\@writefile{lot}{\contentsline {table}{\numberline {6.130}{\ignorespaces drd\_test\_86\relax }}{40}}
\newlabel{tab:drd87}{{\caption@xref {tab:drd87}{ on input line 1855}}{40}}
\@writefile{lot}{\contentsline {table}{\numberline {6.131}{\ignorespaces drd\_test\_87\relax }}{40}}
\newlabel{tab:drd88}{{\caption@xref {tab:drd88}{ on input line 1869}}{40}}
\@writefile{lot}{\contentsline {table}{\numberline {6.132}{\ignorespaces drd\_test\_88\relax }}{40}}
\newlabel{tab:drd89}{{\caption@xref {tab:drd89}{ on input line 1883}}{40}}
\@writefile{lot}{\contentsline {table}{\numberline {6.133}{\ignorespaces drd\_test\_89\relax }}{40}}
\newlabel{tab:drd90}{{\caption@xref {tab:drd90}{ on input line 1897}}{40}}
\@writefile{lot}{\contentsline {table}{\numberline {6.134}{\ignorespaces drd\_test\_90\relax }}{40}}
\newlabel{tab:drd91}{{\caption@xref {tab:drd91}{ on input line 1911}}{40}}
\@writefile{lot}{\contentsline {table}{\numberline {6.135}{\ignorespaces drd\_test\_91\relax }}{40}}
\newlabel{tab:drd92}{{\caption@xref {tab:drd92}{ on input line 1925}}{41}}
\@writefile{lot}{\contentsline {table}{\numberline {6.136}{\ignorespaces drd\_test\_92\relax }}{41}}
\newlabel{tab:drd93}{{\caption@xref {tab:drd93}{ on input line 1939}}{41}}
\@writefile{lot}{\contentsline {table}{\numberline {6.137}{\ignorespaces drd\_test\_93\relax }}{41}}
\newlabel{tab:drd94}{{\caption@xref {tab:drd94}{ on input line 1953}}{41}}
\@writefile{lot}{\contentsline {table}{\numberline {6.138}{\ignorespaces drd\_test\_94\relax }}{41}}
\newlabel{tab:drd95}{{\caption@xref {tab:drd95}{ on input line 1967}}{41}}
\@writefile{lot}{\contentsline {table}{\numberline {6.139}{\ignorespaces drd\_test\_95\relax }}{41}}
\newlabel{tab:drd96}{{\caption@xref {tab:drd96}{ on input line 1981}}{41}}
\@writefile{lot}{\contentsline {table}{\numberline {6.140}{\ignorespaces drd\_test\_96\relax }}{41}}
\newlabel{tab:drd97}{{\caption@xref {tab:drd97}{ on input line 1995}}{41}}
\@writefile{lot}{\contentsline {table}{\numberline {6.141}{\ignorespaces drd\_test\_97\relax }}{41}}
\newlabel{tab:drd98}{{\caption@xref {tab:drd98}{ on input line 2009}}{42}}
\@writefile{lot}{\contentsline {table}{\numberline {6.142}{\ignorespaces drd\_test\_98\relax }}{42}}
\newlabel{tab:drd99}{{\caption@xref {tab:drd99}{ on input line 2023}}{42}}
\@writefile{lot}{\contentsline {table}{\numberline {6.143}{\ignorespaces drd\_test\_99\relax }}{42}}
\newlabel{tab:drd100}{{\caption@xref {tab:drd100}{ on input line 2037}}{42}}
\@writefile{lot}{\contentsline {table}{\numberline {6.144}{\ignorespaces drd\_test\_100\relax }}{42}}
\@setckpt{test_table}{
\setcounter{page}{43}
\setcounter{equation}{0}
\setcounter{enumi}{0}
\setcounter{enumii}{0}
\setcounter{enumiii}{0}
\setcounter{enumiv}{0}
\setcounter{footnote}{0}
\setcounter{mpfootnote}{0}
\setcounter{part}{0}
\setcounter{chapter}{6}
\setcounter{section}{2}
\setcounter{subsection}{0}
\setcounter{subsubsection}{0}
\setcounter{paragraph}{0}
\setcounter{subparagraph}{0}
\setcounter{figure}{0}
\setcounter{table}{144}
\setcounter{blindtext}{1}
\setcounter{Blindtext}{5}
\setcounter{blind@countparstart}{0}
\setcounter{blindlist}{0}
\setcounter{blindlistlevel}{0}
\setcounter{blindlist@level}{0}
\setcounter{blind@listcount}{0}
\setcounter{blind@levelcount}{0}
\setcounter{blind@randomcount}{0}
\setcounter{blind@randommax}{0}
\setcounter{blind@pangramcount}{0}
\setcounter{blind@pangrammax}{0}
\setcounter{ContinuedFloat}{0}
}
