\relax 
\@input{cover_page.aux}
\@input{abstract.aux}
\@input{introduction.aux}
\@input{system_specifications.aux}
\@input{project_goals.aux}
\@input{thread_risks.aux}
\@input{tools.aux}
\@input{test_table.aux}
