\addvspace {10pt}
\addvspace {10pt}
\addvspace {10pt}
\addvspace {10pt}
\contentsline {table}{\numberline {4.1}{\ignorespaces Simple Race\relax }}{12}
\contentsline {table}{\numberline {4.2}{\ignorespaces Race on a Complex Type\relax }}{12}
\contentsline {table}{\numberline {4.3}{\ignorespaces Notification Race\relax }}{12}
\contentsline {table}{\numberline {4.4}{\ignorespaces Object Publishing Race\relax }}{13}
\contentsline {table}{\numberline {4.5}{\ignorespaces Object Publishing Race\relax }}{13}
\contentsline {table}{\numberline {4.6}{\ignorespaces Notification Race\relax }}{14}
\contentsline {table}{\numberline {4.7}{\ignorespaces Object Publishing Race\relax }}{14}
\addvspace {10pt}
\addvspace {10pt}
\contentsline {table}{\numberline {6.1}{\ignorespaces helg\_test\_1\relax }}{16}
\contentsline {table}{\numberline {6.2}{\ignorespaces helg\_test\_2\relax }}{17}
\contentsline {table}{\numberline {6.3}{\ignorespaces helg\_test\_3\relax }}{17}
\contentsline {table}{\numberline {6.4}{\ignorespaces helg\_test\_4\relax }}{17}
\contentsline {table}{\numberline {6.5}{\ignorespaces helg\_test\_5\relax }}{17}
\contentsline {table}{\numberline {6.6}{\ignorespaces helg\_test\_6\relax }}{17}
\contentsline {table}{\numberline {6.7}{\ignorespaces helg\_test\_7\relax }}{18}
\contentsline {table}{\numberline {6.8}{\ignorespaces helg\_test\_8\relax }}{18}
\contentsline {table}{\numberline {6.9}{\ignorespaces helg\_test\_9\relax }}{18}
\contentsline {table}{\numberline {6.10}{\ignorespaces helg\_test\_10\relax }}{18}
\contentsline {table}{\numberline {6.11}{\ignorespaces helg\_test\_11\relax }}{18}
\contentsline {table}{\numberline {6.12}{\ignorespaces helg\_test\_12\relax }}{18}
\contentsline {table}{\numberline {6.13}{\ignorespaces helg\_test\_13\relax }}{19}
\contentsline {table}{\numberline {6.14}{\ignorespaces helg\_test\_14\relax }}{19}
\contentsline {table}{\numberline {6.15}{\ignorespaces helg\_test\_15\relax }}{19}
\contentsline {table}{\numberline {6.16}{\ignorespaces helg\_test\_16\relax }}{19}
\contentsline {table}{\numberline {6.17}{\ignorespaces helg\_test\_17\relax }}{19}
\contentsline {table}{\numberline {6.18}{\ignorespaces helg\_test\_18\relax }}{19}
\contentsline {table}{\numberline {6.19}{\ignorespaces helg\_test\_19\relax }}{20}
\contentsline {table}{\numberline {6.20}{\ignorespaces helg\_test\_20\relax }}{20}
\contentsline {table}{\numberline {6.21}{\ignorespaces helg\_test\_21\relax }}{20}
\contentsline {table}{\numberline {6.22}{\ignorespaces helg\_test\_22\relax }}{20}
\contentsline {table}{\numberline {6.23}{\ignorespaces helg\_test\_23\relax }}{20}
\contentsline {table}{\numberline {6.24}{\ignorespaces helg\_test\_24\relax }}{20}
\contentsline {table}{\numberline {6.25}{\ignorespaces helg\_test\_25\relax }}{21}
\contentsline {table}{\numberline {6.26}{\ignorespaces helg\_test\_26\relax }}{21}
\contentsline {table}{\numberline {6.27}{\ignorespaces helg\_test\_27\relax }}{21}
\contentsline {table}{\numberline {6.28}{\ignorespaces helg\_test\_28\relax }}{21}
\contentsline {table}{\numberline {6.29}{\ignorespaces helg\_test\_29\relax }}{21}
\contentsline {table}{\numberline {6.30}{\ignorespaces helg\_test\_30\relax }}{21}
\contentsline {table}{\numberline {6.31}{\ignorespaces helg\_test\_31\relax }}{22}
\contentsline {table}{\numberline {6.32}{\ignorespaces helg\_test\_32\relax }}{22}
\contentsline {table}{\numberline {6.33}{\ignorespaces helg\_test\_33\relax }}{22}
\contentsline {table}{\numberline {6.34}{\ignorespaces helg\_test\_34\relax }}{22}
\contentsline {table}{\numberline {6.35}{\ignorespaces helg\_test\_35\relax }}{22}
\contentsline {table}{\numberline {6.36}{\ignorespaces helg\_test\_36\relax }}{22}
\contentsline {table}{\numberline {6.37}{\ignorespaces helg\_test\_37\relax }}{23}
\contentsline {table}{\numberline {6.38}{\ignorespaces helg\_test\_38\relax }}{23}
\contentsline {table}{\numberline {6.39}{\ignorespaces helg\_test\_39\relax }}{23}
\contentsline {table}{\numberline {6.40}{\ignorespaces helg\_test\_40\relax }}{23}
\contentsline {table}{\numberline {6.41}{\ignorespaces helg\_test\_41\relax }}{24}
\contentsline {table}{\numberline {6.42}{\ignorespaces helg\_test\_42\relax }}{24}
\contentsline {table}{\numberline {6.43}{\ignorespaces helg\_test\_43\relax }}{24}
\contentsline {table}{\numberline {6.44}{\ignorespaces helg\_test\_44\relax }}{24}
\contentsline {table}{\numberline {6.45}{\ignorespaces drd\_test\_1\relax }}{25}
\contentsline {table}{\numberline {6.46}{\ignorespaces drd\_test\_2\relax }}{26}
\contentsline {table}{\numberline {6.47}{\ignorespaces drd\_test\_3\relax }}{26}
\contentsline {table}{\numberline {6.48}{\ignorespaces drd\_test\_4\relax }}{26}
\contentsline {table}{\numberline {6.49}{\ignorespaces drd\_test\_5\relax }}{26}
\contentsline {table}{\numberline {6.50}{\ignorespaces drd\_test\_6\relax }}{26}
\contentsline {table}{\numberline {6.51}{\ignorespaces drd\_test\_7\relax }}{26}
\contentsline {table}{\numberline {6.52}{\ignorespaces drd\_test\_8\relax }}{27}
\contentsline {table}{\numberline {6.53}{\ignorespaces drd\_test\_9\relax }}{27}
\contentsline {table}{\numberline {6.54}{\ignorespaces drd\_test\_10\relax }}{27}
\contentsline {table}{\numberline {6.55}{\ignorespaces drd\_test\_11\relax }}{27}
\contentsline {table}{\numberline {6.56}{\ignorespaces drd\_test\_12\relax }}{27}
\contentsline {table}{\numberline {6.57}{\ignorespaces drd\_test\_13\relax }}{27}
\contentsline {table}{\numberline {6.58}{\ignorespaces drd\_test\_14\relax }}{28}
\contentsline {table}{\numberline {6.59}{\ignorespaces drd\_test\_15\relax }}{28}
\contentsline {table}{\numberline {6.60}{\ignorespaces drd\_test\_16\relax }}{28}
\contentsline {table}{\numberline {6.61}{\ignorespaces drd\_test\_17\relax }}{28}
\contentsline {table}{\numberline {6.62}{\ignorespaces drd\_test\_18\relax }}{28}
\contentsline {table}{\numberline {6.63}{\ignorespaces drd\_test\_19\relax }}{28}
\contentsline {table}{\numberline {6.64}{\ignorespaces drd\_test\_20\relax }}{29}
\contentsline {table}{\numberline {6.65}{\ignorespaces drd\_test\_21\relax }}{29}
\contentsline {table}{\numberline {6.66}{\ignorespaces drd\_test\_22\relax }}{29}
\contentsline {table}{\numberline {6.67}{\ignorespaces drd\_test\_23\relax }}{29}
\contentsline {table}{\numberline {6.68}{\ignorespaces drd\_test\_24\relax }}{29}
\contentsline {table}{\numberline {6.69}{\ignorespaces drd\_test\_25\relax }}{29}
\contentsline {table}{\numberline {6.70}{\ignorespaces drd\_test\_26\relax }}{30}
\contentsline {table}{\numberline {6.71}{\ignorespaces drd\_test\_27\relax }}{30}
\contentsline {table}{\numberline {6.72}{\ignorespaces drd\_test\_28\relax }}{30}
\contentsline {table}{\numberline {6.73}{\ignorespaces drd\_test\_29\relax }}{30}
\contentsline {table}{\numberline {6.74}{\ignorespaces drd\_test\_30\relax }}{30}
\contentsline {table}{\numberline {6.75}{\ignorespaces drd\_test\_31\relax }}{30}
\contentsline {table}{\numberline {6.76}{\ignorespaces drd\_test\_32\relax }}{31}
\contentsline {table}{\numberline {6.77}{\ignorespaces drd\_test\_33\relax }}{31}
\contentsline {table}{\numberline {6.78}{\ignorespaces drd\_test\_34\relax }}{31}
\contentsline {table}{\numberline {6.79}{\ignorespaces drd\_test\_35\relax }}{31}
\contentsline {table}{\numberline {6.80}{\ignorespaces drd\_test\_36\relax }}{31}
\contentsline {table}{\numberline {6.81}{\ignorespaces drd\_test\_37\relax }}{31}
\contentsline {table}{\numberline {6.82}{\ignorespaces drd\_test\_38\relax }}{32}
\contentsline {table}{\numberline {6.83}{\ignorespaces drd\_test\_39\relax }}{32}
\contentsline {table}{\numberline {6.84}{\ignorespaces drd\_test\_40\relax }}{32}
\contentsline {table}{\numberline {6.85}{\ignorespaces drd\_test\_41\relax }}{32}
\contentsline {table}{\numberline {6.86}{\ignorespaces drd\_test\_42\relax }}{32}
\contentsline {table}{\numberline {6.87}{\ignorespaces drd\_test\_43\relax }}{32}
\contentsline {table}{\numberline {6.88}{\ignorespaces drd\_test\_44\relax }}{33}
\contentsline {table}{\numberline {6.89}{\ignorespaces drd\_test\_45\relax }}{33}
\contentsline {table}{\numberline {6.90}{\ignorespaces drd\_test\_46\relax }}{33}
\contentsline {table}{\numberline {6.91}{\ignorespaces drd\_test\_47\relax }}{33}
\contentsline {table}{\numberline {6.92}{\ignorespaces drd\_test\_48\relax }}{33}
\contentsline {table}{\numberline {6.93}{\ignorespaces drd\_test\_49\relax }}{33}
\contentsline {table}{\numberline {6.94}{\ignorespaces drd\_test\_50\relax }}{34}
\contentsline {table}{\numberline {6.95}{\ignorespaces drd\_test\_51\relax }}{34}
\contentsline {table}{\numberline {6.96}{\ignorespaces drd\_test\_52\relax }}{34}
\contentsline {table}{\numberline {6.97}{\ignorespaces drd\_test\_53\relax }}{34}
\contentsline {table}{\numberline {6.98}{\ignorespaces drd\_test\_54\relax }}{34}
\contentsline {table}{\numberline {6.99}{\ignorespaces drd\_test\_55\relax }}{34}
\contentsline {table}{\numberline {6.100}{\ignorespaces drd\_test\_56\relax }}{35}
\contentsline {table}{\numberline {6.101}{\ignorespaces drd\_test\_57\relax }}{35}
\contentsline {table}{\numberline {6.102}{\ignorespaces drd\_test\_58\relax }}{35}
\contentsline {table}{\numberline {6.103}{\ignorespaces drd\_test\_59\relax }}{35}
\contentsline {table}{\numberline {6.104}{\ignorespaces drd\_test\_60\relax }}{35}
\contentsline {table}{\numberline {6.105}{\ignorespaces drd\_test\_61\relax }}{35}
\contentsline {table}{\numberline {6.106}{\ignorespaces drd\_test\_62\relax }}{36}
\contentsline {table}{\numberline {6.107}{\ignorespaces drd\_test\_1\relax }}{36}
\contentsline {table}{\numberline {6.108}{\ignorespaces drd\_test\_64\relax }}{36}
\contentsline {table}{\numberline {6.109}{\ignorespaces drd\_test\_65\relax }}{36}
\contentsline {table}{\numberline {6.110}{\ignorespaces drd\_test\_1\relax }}{36}
\contentsline {table}{\numberline {6.111}{\ignorespaces drd\_test\_67\relax }}{36}
\contentsline {table}{\numberline {6.112}{\ignorespaces drd\_test\_68\relax }}{37}
\contentsline {table}{\numberline {6.113}{\ignorespaces drd\_test\_69\relax }}{37}
\contentsline {table}{\numberline {6.114}{\ignorespaces drd\_test\_70\relax }}{37}
\contentsline {table}{\numberline {6.115}{\ignorespaces drd\_test\_71\relax }}{37}
\contentsline {table}{\numberline {6.116}{\ignorespaces drd\_test\_72\relax }}{37}
\contentsline {table}{\numberline {6.117}{\ignorespaces drd\_test\_73\relax }}{37}
\contentsline {table}{\numberline {6.118}{\ignorespaces drd\_test\_74\relax }}{38}
\contentsline {table}{\numberline {6.119}{\ignorespaces drd\_test\_75\relax }}{38}
\contentsline {table}{\numberline {6.120}{\ignorespaces drd\_test\_76\relax }}{38}
\contentsline {table}{\numberline {6.121}{\ignorespaces drd\_test\_77\relax }}{38}
\contentsline {table}{\numberline {6.122}{\ignorespaces drd\_test\_78\relax }}{38}
\contentsline {table}{\numberline {6.123}{\ignorespaces drd\_test\_79\relax }}{38}
\contentsline {table}{\numberline {6.124}{\ignorespaces drd\_test\_80\relax }}{39}
\contentsline {table}{\numberline {6.125}{\ignorespaces drd\_test\_81\relax }}{39}
\contentsline {table}{\numberline {6.126}{\ignorespaces drd\_test\_82\relax }}{39}
\contentsline {table}{\numberline {6.127}{\ignorespaces drd\_test\_83\relax }}{39}
\contentsline {table}{\numberline {6.128}{\ignorespaces drd\_test\_84\relax }}{39}
\contentsline {table}{\numberline {6.129}{\ignorespaces drd\_test\_85\relax }}{39}
\contentsline {table}{\numberline {6.130}{\ignorespaces drd\_test\_86\relax }}{40}
\contentsline {table}{\numberline {6.131}{\ignorespaces drd\_test\_87\relax }}{40}
\contentsline {table}{\numberline {6.132}{\ignorespaces drd\_test\_88\relax }}{40}
\contentsline {table}{\numberline {6.133}{\ignorespaces drd\_test\_89\relax }}{40}
\contentsline {table}{\numberline {6.134}{\ignorespaces drd\_test\_90\relax }}{40}
\contentsline {table}{\numberline {6.135}{\ignorespaces drd\_test\_91\relax }}{40}
\contentsline {table}{\numberline {6.136}{\ignorespaces drd\_test\_92\relax }}{41}
\contentsline {table}{\numberline {6.137}{\ignorespaces drd\_test\_93\relax }}{41}
\contentsline {table}{\numberline {6.138}{\ignorespaces drd\_test\_94\relax }}{41}
\contentsline {table}{\numberline {6.139}{\ignorespaces drd\_test\_95\relax }}{41}
\contentsline {table}{\numberline {6.140}{\ignorespaces drd\_test\_96\relax }}{41}
\contentsline {table}{\numberline {6.141}{\ignorespaces drd\_test\_97\relax }}{41}
\contentsline {table}{\numberline {6.142}{\ignorespaces drd\_test\_98\relax }}{42}
\contentsline {table}{\numberline {6.143}{\ignorespaces drd\_test\_99\relax }}{42}
\contentsline {table}{\numberline {6.144}{\ignorespaces drd\_test\_100\relax }}{42}
