\relax 
\@writefile{toc}{\contentsline {chapter}{\numberline {4.}Risks Associated with Multi-Threaded Programming}{11}}
\@writefile{lof}{\addvspace {10pt}}
\@writefile{lot}{\addvspace {10pt}}
\@writefile{toc}{\contentsline {section}{\numberline {4.1}Race Conditions}{11}}
\@writefile{toc}{\contentsline {subsection}{\numberline {4.1.1}Simple Race}{12}}
\providecommand*\caption@xref[2]{\@setref\relax\@undefined{#1}}
\newlabel{tab:simple_race}{{\caption@xref {tab:simple_race}{ on input line 18}}{12}}
\@writefile{lot}{\contentsline {table}{\numberline {4.1}{\ignorespaces Simple Race\relax }}{12}}
\@writefile{toc}{\contentsline {subsection}{\numberline {4.1.2}Race on a Complex Type}{12}}
\newlabel{tab:race_on_complex_type}{{\caption@xref {tab:race_on_complex_type}{ on input line 38}}{12}}
\@writefile{lot}{\contentsline {table}{\numberline {4.2}{\ignorespaces Race on a Complex Type\relax }}{12}}
\@writefile{toc}{\contentsline {subsection}{\numberline {4.1.3}Notification Race}{12}}
\newlabel{tab:notification_race}{{\caption@xref {tab:notification_race}{ on input line 57}}{12}}
\@writefile{lot}{\contentsline {table}{\numberline {4.3}{\ignorespaces Notification Race\relax }}{12}}
\@writefile{toc}{\contentsline {subsection}{\numberline {4.1.4}Publishing Objects without Synchronization}{13}}
\newlabel{tab:obj_publishing_race}{{\caption@xref {tab:obj_publishing_race}{ on input line 78}}{13}}
\@writefile{lot}{\contentsline {table}{\numberline {4.4}{\ignorespaces Object Publishing Race\relax }}{13}}
\@writefile{toc}{\contentsline {subsection}{\numberline {4.1.5}Initializing Objects without Synchronization}{13}}
\newlabel{tab:obj_publishing_race}{{\caption@xref {tab:obj_publishing_race}{ on input line 99}}{13}}
\@writefile{lot}{\contentsline {table}{\numberline {4.5}{\ignorespaces Object Publishing Race\relax }}{13}}
\@writefile{toc}{\contentsline {subsection}{\numberline {4.1.6}Write during a ReaderLock}{13}}
\newlabel{tab:notification_race}{{\caption@xref {tab:notification_race}{ on input line 125}}{14}}
\@writefile{lot}{\contentsline {table}{\numberline {4.6}{\ignorespaces Notification Race\relax }}{14}}
\@writefile{toc}{\contentsline {subsection}{\numberline {4.1.7}Adjacent Bit Fields}{14}}
\newlabel{tab:obj_publishing_race}{{\caption@xref {tab:obj_publishing_race}{ on input line 146}}{14}}
\@writefile{lot}{\contentsline {table}{\numberline {4.7}{\ignorespaces Object Publishing Race\relax }}{14}}
\@writefile{toc}{\contentsline {subsection}{\numberline {4.1.8}Double-Checked Locking}{14}}
\@writefile{toc}{\contentsline {subsection}{\numberline {4.1.9}Race During Destruction}{14}}
\@writefile{toc}{\contentsline {subsection}{\numberline {4.1.10}Race on vptr}{14}}
\@writefile{toc}{\contentsline {section}{\numberline {4.2}Deadlock}{14}}
\@setckpt{thread_risks}{
\setcounter{page}{15}
\setcounter{equation}{0}
\setcounter{enumi}{0}
\setcounter{enumii}{0}
\setcounter{enumiii}{0}
\setcounter{enumiv}{0}
\setcounter{footnote}{0}
\setcounter{mpfootnote}{0}
\setcounter{part}{0}
\setcounter{chapter}{4}
\setcounter{section}{2}
\setcounter{subsection}{0}
\setcounter{subsubsection}{0}
\setcounter{paragraph}{0}
\setcounter{subparagraph}{0}
\setcounter{figure}{0}
\setcounter{table}{7}
\setcounter{blindtext}{1}
\setcounter{Blindtext}{5}
\setcounter{blind@countparstart}{0}
\setcounter{blindlist}{0}
\setcounter{blindlistlevel}{0}
\setcounter{blindlist@level}{0}
\setcounter{blind@listcount}{0}
\setcounter{blind@levelcount}{0}
\setcounter{blind@randomcount}{0}
\setcounter{blind@randommax}{0}
\setcounter{blind@pangramcount}{0}
\setcounter{blind@pangrammax}{0}
\setcounter{ContinuedFloat}{0}
}
