\relax 
\@writefile{toc}{\contentsline {chapter}{\numberline {5.}Tools Being Used}{15}}
\@writefile{lof}{\addvspace {10pt}}
\@writefile{lot}{\addvspace {10pt}}
\@writefile{toc}{\contentsline {section}{\numberline {5.1}Valgrind's Helgrind}{15}}
\@writefile{toc}{\contentsline {section}{\numberline {5.2}Valgrind's DRD}{15}}
\@writefile{toc}{\contentsline {section}{\numberline {5.3}LLVM's ThreadSanitizer}{15}}
\@writefile{toc}{\contentsline {section}{\numberline {5.4}GNU's ThreadSanitizer}{15}}
\@setckpt{tools}{
\setcounter{page}{16}
\setcounter{equation}{0}
\setcounter{enumi}{0}
\setcounter{enumii}{0}
\setcounter{enumiii}{0}
\setcounter{enumiv}{0}
\setcounter{footnote}{0}
\setcounter{mpfootnote}{0}
\setcounter{part}{0}
\setcounter{chapter}{5}
\setcounter{section}{4}
\setcounter{subsection}{0}
\setcounter{subsubsection}{0}
\setcounter{paragraph}{0}
\setcounter{subparagraph}{0}
\setcounter{figure}{0}
\setcounter{table}{0}
\setcounter{blindtext}{1}
\setcounter{Blindtext}{5}
\setcounter{blind@countparstart}{0}
\setcounter{blindlist}{0}
\setcounter{blindlistlevel}{0}
\setcounter{blindlist@level}{0}
\setcounter{blind@listcount}{0}
\setcounter{blind@levelcount}{0}
\setcounter{blind@randomcount}{0}
\setcounter{blind@randommax}{0}
\setcounter{blind@pangramcount}{0}
\setcounter{blind@pangrammax}{0}
\setcounter{ContinuedFloat}{0}
}
