==22371== 32 bytes in 1 blocks are definitely lost in loss record 1 of 1
==22371==    at 0x4C2BBA0: malloc (in /usr/lib/valgrind/vgpreload_memcheck-amd64-linux.so)
==22371==    by 0x400C6B: my_sem_init (in /home/shehab/Documents/TFG/Valgrind Source Code/valgrind-3.10.1/helgrind/tests/test_files/executables/tc24_nonzero_sem)
==22371==    by 0x400B39: main (in /home/shehab/Documents/TFG/Valgrind Source Code/valgrind-3.10.1/helgrind/tests/test_files/executables/tc24_nonzero_sem)
==22371== 
